Division,WeightClassKg,Place,Name,Team,BodyweightKg,Best3SquatKg,Best3BenchKg,Best3DeadliftKg,TotalKg,Equipment,Event,Sex
Boys,55.79,1,Tre'von Bates,Dumas,51.89,124.74,47.63,129.27,301.64,Single-ply,SBD,M
Boys,51.71,2,Carlos Bravo,Olton,49.9,106.59,54.43,111.13,272.16,Single-ply,SBD,M
Boys,51.71,3,Corey Chavira,Levelland,50.98,90.72,52.16,102.06,244.94,Single-ply,SBD,M
Boys,51.71,4,Ryan Shemwell,Panhandle,49.44,74.84,49.9,92.99,217.72,Single-ply,SBD,M
Boys,51.71,5,Freddy Pavez,Panhandle,50.62,74.84,49.9,92.99,217.72,Single-ply,SBD,M
Boys,51.71,6,Kelly Jones,Crosbyton,51.62,68.04,45.36,79.38,192.78,Single-ply,SBD,M
Boys,51.71,7,Christian Botello,Dumas,50.71,65.77,47.63,63.5,176.9,Single-ply,SBD,M
Boys,51.71,DQ,Schellbe Scott,Midland,45.18,90.72,,,,Single-ply,SBD,M
Boys,55.79,1,Shimar Jennings,Plainview,53.16,138.35,88.45,165.56,392.36,Single-ply,SBD,M
Boys,55.79,2,Troy Morales,Floydada,52.8,140.61,86.18,147.42,374.21,Single-ply,SBD,M
Boys,55.79,3,Gabe Garcia,Midland,53.61,120.2,61.23,142.88,324.32,Single-ply,SBD,M
Boys,55.79,4,Joseph Campos,Midland,54.79,115.67,52.16,129.27,297.1,Single-ply,SBD,M
Boys,55.79,5,Austin Marmelejo,Lubbock Monterey,54.7,102.06,61.23,120.2,283.5,Single-ply,SBD,M
Boys,55.79,6,Zach Sanchez,Levelland,55.34,74.84,54.43,77.11,206.38,Single-ply,SBD,M
Boys,59.87,1,Dimas Rodriguez,Plainview,59.69,147.42,95.25,149.69,392.36,Single-ply,SBD,M
Boys,59.87,2,DJ Brown,Post,58.42,138.35,77.11,145.15,360.61,Single-ply,SBD,M
Boys,59.87,3,Carlos Sosa,Muleshoe,57.61,136.08,74.84,136.08,347,Single-ply,SBD,M
Boys,59.87,4,JR Sullivan,Olton,59.87,124.74,65.77,142.88,333.39,Single-ply,SBD,M
Boys,59.87,5,Levi Wright,Slaton,58.79,124.74,72.57,129.27,326.59,Single-ply,SBD,M
Boys,59.87,6,Joey Rios,Dumas,59.6,122.47,61.23,138.35,322.05,Single-ply,SBD,M
Boys,67.13,7,David Denton,Wolfforth Frenship,60.06,102.06,68.04,124.74,294.84,Single-ply,SBD,M
Boys,59.87,8,Trenton Morgan,Amarillo Highland Park,56.06,86.18,54.43,113.4,254.01,Single-ply,SBD,M
Boys,67.13,1,Alfredo Sanchez,Muleshoe,64.5,158.76,90.72,185.97,435.45,Single-ply,SBD,M
Boys,67.13,2,Alberto Flores,Olton,63.5,158.76,95.25,149.69,403.7,Single-ply,SBD,M
Boys,67.13,3,Eric Davis,Lubbock Monterey,65.14,154.22,90.72,158.76,403.7,Single-ply,SBD,M
Boys,67.13,4,Bobby Clift,Canyon Randall,63.96,147.42,90.72,158.76,396.89,Single-ply,SBD,M
Boys,67.13,5,Cullen Holt,Plainview,64.86,147.42,81.65,149.69,378.75,Single-ply,SBD,M
Boys,67.13,6,Michael Pardo,Hale Center,64.32,136.08,88.45,151.95,376.48,Single-ply,SBD,M
Boys,67.13,7,Jordan Sircable,Wolfforth Frenship,65.95,147.42,77.11,138.35,362.87,Single-ply,SBD,M
Boys,74.84,8,Cameron Barnes,Perryton,67.22,115.67,83.91,149.69,349.27,Single-ply,SBD,M
Boys,67.13,9,Junior Baca,Muleshoe,62.51,136.08,72.57,127.01,335.66,Single-ply,SBD,M
Boys,67.13,10,Tyler Gano,Canyon Randall,65.95,129.27,70.31,136.08,335.66,Single-ply,SBD,M
Boys,67.13,11,Talyn Duncan,Canyon,64.41,115.67,79.38,133.81,328.85,Single-ply,SBD,M
Boys,74.84,12,Eli Perez,Plainview,67.31,120.2,70.31,136.08,326.59,Single-ply,SBD,M
Boys,67.13,13,Junior Triana,Muleshoe,63.87,113.4,68.04,142.88,324.32,Single-ply,SBD,M
Boys,67.13,14,Bailey Settle,Plainview,65.41,127.01,72.57,122.47,322.05,Single-ply,SBD,M
Boys,67.13,15,Doyle Mills,Lubbock Monterey,63.68,108.86,63.5,136.08,308.44,Single-ply,SBD,M
Boys,67.13,16,Ryan Bybee,Dumas,61.87,111.13,68.04,127.01,306.17,Single-ply,SBD,M
Boys,67.13,17,Matthew Guajardo,Levelland,65.05,113.4,79.38,108.86,301.64,Single-ply,SBD,M
Boys,67.13,18,Zachary Galloway,Hale Center,63.5,102.06,72.57,124.74,299.37,Single-ply,SBD,M
Boys,67.13,19,Marq Burns,Amarillo Highland Park,66.95,102.06,61.23,122.47,285.76,Single-ply,SBD,M
Boys,67.13,20,Ishmael Soto,Plainview,61.96,111.13,58.97,113.4,283.5,Single-ply,SBD,M
Boys,67.13,21,Paul Barrientos,Hale Center,60.42,83.91,61.23,115.67,260.82,Single-ply,SBD,M
Boys,67.13,22,Evan Shedd,Levelland,63.05,97.52,63.5,92.99,254.01,Single-ply,SBD,M
Boys,67.13,23,Juliain Naverette,Dumas,61.69,92.99,63.5,92.99,249.48,Single-ply,SBD,M
Boys,67.13,24,Andres Vasquez,Levelland,62.87,104.33,47.63,97.52,249.48,Single-ply,SBD,M
Boys,67.13,25,Mitchell Monk,Levelland,64.14,86.18,56.7,86.18,229.06,Single-ply,SBD,M
Boys,67.13,26,Adrian Chavez,Panhandle,64.14,52.16,47.63,65.77,165.56,Single-ply,SBD,M
Boys,67.13,DQ,Robert Sanchez #3,Midland,66.13,120.2,,,,Single-ply,SBD,M
Boys,67.13,DQ,Nolan Willingham,Canyon Randall,60.24,95.25,,,,Single-ply,SBD,M
Boys,67.13,DQ,Jacob Tobias,Canyon Randall,66.86,122.47,,,,Single-ply,SBD,M
Boys,67.13,DQ,Dillon Stevens,Wolfforth Frenship,64.32,136.08,,131.54,,Single-ply,SBD,M
Boys,67.13,DQ,Bryan Berry,Crosbyton,64.41,108.86,72.57,,,Single-ply,SBD,M
Boys,67.13,DQ,Casey Redden,Hale Center,66.77,117.93,88.45,,,Single-ply,SBD,M
Boys,74.84,1,Alan Rivera,Plainview,74.66,222.26,127.01,210.92,560.19,Single-ply,SBD,M
Boys,74.84,2,Thomas Walker,Lubbock Monterey,71.03,190.51,108.86,195.04,494.42,Single-ply,SBD,M
Boys,74.84,3,Jesus Ramirez,Midland,74.39,183.7,113.4,170.1,467.2,Single-ply,SBD,M
Boys,74.84,4,Luis Juarez,Midland,74.39,183.7,92.99,185.97,462.66,Single-ply,SBD,M
Boys,74.84,5,Tony Dickey,Dumas,74.03,165.56,90.72,188.24,444.52,Single-ply,SBD,M
Boys,74.84,6,Brendan Harris,Amarillo Highland Park,68.86,170.1,86.18,181.44,437.72,Single-ply,SBD,M
Boys,74.84,7,Edward Jalomo,Olton,70.31,158.76,102.06,174.63,435.45,Single-ply,SBD,M
Boys,74.84,8,Noah DiSalvo,Plainview,71.58,145.15,97.52,181.44,424.11,Single-ply,SBD,M
Boys,82.1,9,Luke Sherman,Lockney,75.02,154.22,95.25,172.37,421.84,Single-ply,SBD,M
Boys,74.84,10,Matthew Fennimore,Slaton,68.76,170.1,88.45,158.76,417.3,Single-ply,SBD,M
Boys,74.84,11,Emilio Sandoval,Olton,72.67,158.76,88.45,170.1,417.3,Single-ply,SBD,M
Boys,74.84,12,Kevin Williams,Wolfforth Frenship,71.85,154.22,102.06,158.76,415.04,Single-ply,SBD,M
Boys,74.84,13,Casey Sanders,Wolfforth Frenship,69.13,142.88,102.06,158.76,403.7,Single-ply,SBD,M
Boys,74.84,14,Pablo Jimenez,Plainview,73.94,142.88,86.18,170.1,399.16,Single-ply,SBD,M
Boys,74.84,15,Lance Mullins,Amarillo Highland Park,74.57,147.42,77.11,165.56,390.09,Single-ply,SBD,M
Boys,74.84,16,Ivan Melendez,Midland,71.4,142.88,74.84,163.29,381.02,Single-ply,SBD,M
Boys,74.84,17,Isaiah Carrasco,Plainview,69.58,138.35,86.18,149.69,374.21,Single-ply,SBD,M
Boys,74.84,18,Justin Robinson #5,Wolfforth Frenship,70.67,142.88,90.72,133.81,367.41,Single-ply,SBD,M
Boys,74.84,19,Gilbert Rocha,Canyon Randall,69.4,122.47,102.06,136.08,360.61,Single-ply,SBD,M
Boys,74.84,20,Heriberto Romero,Perryton,69.49,115.67,83.91,158.76,358.34,Single-ply,SBD,M
Boys,74.84,21,Brenner Fox,Crosbyton,69.31,136.08,83.91,136.08,356.07,Single-ply,SBD,M
Boys,74.84,22,William Ratton,Wolfforth Frenship,71.67,136.08,83.91,136.08,356.07,Single-ply,SBD,M
Boys,74.84,23,Miguel Carnero,Perryton,70.13,122.47,70.31,147.42,340.19,Single-ply,SBD,M
Boys,74.84,24,Juan Cabrera,Post,70.49,129.27,72.57,138.35,340.19,Single-ply,SBD,M
Boys,74.84,25,Michael Garcia #10,Plainview,74.84,131.54,65.77,142.88,340.19,Single-ply,SBD,M
Boys,74.84,26,Victor Plasencia,Lubbock Monterey,68.13,115.67,83.91,138.35,337.93,Single-ply,SBD,M
Boys,74.84,27,Nathan Leyendecker,Plainview,68.67,129.27,68.04,138.35,335.66,Single-ply,SBD,M
Boys,74.84,28,Phong Nguyen,Amarillo Highland Park,70.4,131.54,68.04,136.08,335.66,Single-ply,SBD,M
Boys,74.84,29,Domingo Macias,Dumas,73.66,102.06,88.45,145.15,335.66,Single-ply,SBD,M
Boys,82.1,30,Zach Ponder,Plainview,75.07,138.35,72.57,124.74,335.66,Single-ply,SBD,M
Boys,74.84,31,Mikal Miner,Hale Center,70.22,124.74,72.57,124.74,322.05,Single-ply,SBD,M
Boys,74.84,32,Julio Calderon,Crosbyton,74.66,115.67,49.9,136.08,301.64,Single-ply,SBD,M
Boys,74.84,33,Reymundo Salinas,Crosbyton,71.21,95.25,74.84,115.67,285.76,Single-ply,SBD,M
Boys,82.1,34,Matt Gerber,Levelland,75.02,95.25,72.57,106.59,274.42,Single-ply,SBD,M
Boys,74.84,35,Kain Alexander,Levelland,71.3,111.13,68.04,92.99,272.16,Single-ply,SBD,M
Boys,74.84,36,Jonathan Ruiz,Dumas,68.4,61.23,54.43,120.2,235.87,Single-ply,SBD,M
Boys,74.84,DQ,Kennedy Prescott,Amarillo Highland Park,71.3,115.67,,,,Single-ply,SBD,M
Boys,74.84,DQ,Tristan Bravo,Olton,68.86,90.72,61.23,115.67,,Single-ply,SBD,M
Boys,74.84,DQ,David Ramirez,Lubbock Monterey,72.03,,,,,Single-ply,SBD,M
Boys,74.84,DQ,Chris Taylor #11,Amarillo Highland Park,71.3,147.42,83.91,,,Single-ply,SBD,M
Boys,74.84,DQ,Caden Dean,Post,68.22,,,,,Single-ply,SBD,M
Boys,82.1,1,Kane Isaacks,Levelland,81.01,170.1,108.86,215.46,494.42,Single-ply,SBD,M
Boys,82.1,2,Adrian Gonzales,Plainview,78.02,165.56,115.67,192.78,474,Single-ply,SBD,M
Boys,82.1,3,Isaac Moran,Dumas,78.38,167.83,102.06,176.9,446.79,Single-ply,SBD,M
Boys,82.1,4,Aldo Marquez,Plainview,78.02,172.37,88.45,183.7,444.52,Single-ply,SBD,M
Boys,82.1,5,Garrett Bawcom,Lubbock Monterey,78.02,154.22,111.13,167.83,433.18,Single-ply,SBD,M
Boys,82.1,6,Christian Cantu,Olton,81.28,147.42,86.18,199.58,433.18,Single-ply,SBD,M
Boys,82.1,7,Nathaniel Gill,Post,81.19,174.63,97.52,158.76,430.91,Single-ply,SBD,M
Boys,82.1,8,Conner MacNair,Wolfforth Frenship,78.47,142.88,104.33,181.44,428.64,Single-ply,SBD,M
Boys,82.1,9,Christian Lucio,Muleshoe,78.74,167.83,90.72,165.56,424.11,Single-ply,SBD,M
Boys,82.1,10,Jeremy Mandrel,Olton,81.19,158.76,90.72,170.1,419.57,Single-ply,SBD,M
Boys,82.1,11,Quentin Valentine,Plainview,80.92,172.37,90.72,151.95,415.04,Single-ply,SBD,M
Boys,82.1,12,Jose Arvizu,Plainview,80.01,147.42,86.18,165.56,399.16,Single-ply,SBD,M
Boys,82.1,13,Logan Wren,Lubbock Monterey,81.74,142.88,102.06,147.42,392.36,Single-ply,SBD,M
Boys,82.1,14,Jesus Romero,Dumas,77.02,129.27,79.38,158.76,367.41,Single-ply,SBD,M
Boys,82.1,15,Max Belyou,Hale Center,79.47,129.27,83.91,151.95,365.14,Single-ply,SBD,M
Boys,82.1,16,Travis Baur,Midland,78.38,124.74,72.57,142.88,340.19,Single-ply,SBD,M
Boys,82.1,17,Elias Mata,Levelland,75.93,113.4,86.18,124.74,324.32,Single-ply,SBD,M
Boys,82.1,18,Evaristo Rodriguez,Levelland,76.11,111.13,86.18,111.13,308.44,Single-ply,SBD,M
Boys,82.1,19,Angel Fierro,Levelland,82.1,108.86,81.65,104.33,294.84,Single-ply,SBD,M
Boys,82.1,20,Tony Rivas,Plainview,78.65,90.72,56.7,124.74,272.16,Single-ply,SBD,M
Boys,82.1,21,Tyler Perez,Levelland,78.83,90.72,58.97,90.72,240.4,Single-ply,SBD,M
Boys,89.81,1,Marquise Clater,Midland,88.36,229.06,124.74,226.8,580.6,Single-ply,SBD,M
Boys,89.81,2,Shaq Thompson,Lockney,83.46,190.51,142.88,190.51,523.9,Single-ply,SBD,M
Boys,89.81,3,Royce Strader,Muleshoe,85.28,188.24,111.13,181.44,480.81,Single-ply,SBD,M
Boys,89.81,4,Johnathan Passaron,Midland,88.36,181.44,95.25,197.31,474,Single-ply,SBD,M
Boys,89.81,5,Jordan Aguilar,Post,83.37,185.97,97.52,181.44,464.93,Single-ply,SBD,M
Boys,89.81,6,Chris Galvan #2,Plainview,83.73,185.97,106.59,163.29,455.86,Single-ply,SBD,M
Boys,89.81,7,Andrew Dunlap,Plainview,83.46,158.76,117.93,170.1,446.79,Single-ply,SBD,M
Boys,89.81,8,Andrew Mendez,Wolfforth Frenship,83.01,149.69,92.99,183.7,426.38,Single-ply,SBD,M
Boys,89.81,9,Corbin McCullough,Midland,85.91,147.42,113.4,165.56,426.38,Single-ply,SBD,M
Boys,89.81,10,Shelby Shultz,Canyon,83.55,165.56,90.72,165.56,421.84,Single-ply,SBD,M
Boys,89.81,11,Steve Bolton,Lubbock Monterey,83.73,142.88,104.33,167.83,415.04,Single-ply,SBD,M
Boys,89.81,12,Paul Childress #2,Lubbock Monterey,89.54,142.88,88.45,181.44,412.77,Single-ply,SBD,M
Boys,89.81,13,Paul Martinez,Post,86.73,165.56,97.52,147.42,410.5,Single-ply,SBD,M
Boys,89.81,14,Stetson Casey,Wolfforth Frenship,82.83,149.69,97.52,154.22,401.43,Single-ply,SBD,M
Boys,89.81,15,Tommy Inthrath,Dumas,84.28,165.56,72.57,151.95,390.09,Single-ply,SBD,M
Boys,89.81,16,Flores Guillermo,Plainview,89.63,142.88,74.84,149.69,367.41,Single-ply,SBD,M
Boys,89.81,17,Jw Rodriquez,Canyon,89.72,120.2,90.72,145.15,356.07,Single-ply,SBD,M
Boys,89.81,18,Jesus Navarez,Dumas,85.28,120.2,88.45,142.88,351.53,Single-ply,SBD,M
Boys,89.81,19,Jerrardo Ruelas,Levelland,89.72,131.54,97.52,120.2,349.27,Single-ply,SBD,M
Boys,89.81,20,Brady Brown,Perryton,84.37,115.67,79.38,122.47,317.51,Single-ply,SBD,M
Boys,89.81,21,Collin Fulton,Lockney,89.27,81.65,81.65,131.54,294.84,Single-ply,SBD,M
Boys,99.79,1,Zach Subealdea,Plainview,97.25,208.65,127.01,226.8,562.45,Single-ply,SBD,M
Boys,99.79,2,Santiago Fabela,Plainview,98.61,204.12,140.61,185.97,530.7,Single-ply,SBD,M
Boys,99.79,3,Danny Montelongo,Plainview,98.16,192.78,122.47,185.97,501.22,Single-ply,SBD,M
Boys,99.79,4,Leo Lucio,Muleshoe,97.07,181.44,117.93,197.31,496.68,Single-ply,SBD,M
Boys,99.79,5,Zack Sperazza,Canyon Randall,96.34,165.56,122.47,204.12,492.15,Single-ply,SBD,M
Boys,99.79,6,Cameron Patterson,Dumas,99.52,165.56,111.13,199.58,476.27,Single-ply,SBD,M
Boys,99.79,7,Ricky Alvarez,Lubbock Monterey,97.98,183.7,111.13,149.69,444.52,Single-ply,SBD,M
Boys,99.79,8,Pedro Garcia,Canyon,95.8,156.49,104.33,167.83,428.64,Single-ply,SBD,M
Boys,99.79,9,Matt Foster,Wolfforth Frenship,97.16,170.1,72.57,172.37,415.04,Single-ply,SBD,M
Boys,99.79,10,Chris Thomas,Slaton,98.16,179.17,92.99,136.08,408.23,Single-ply,SBD,M
Boys,99.79,11,Eddie Campos,Levelland,92.26,147.42,104.33,142.88,394.63,Single-ply,SBD,M
Boys,99.79,12,Tanner Patterson,Canyon,94.08,133.81,102.06,154.22,390.09,Single-ply,SBD,M
Boys,99.79,13,Aiden Lopez,Plainview,96.34,142.88,92.99,154.22,390.09,Single-ply,SBD,M
Boys,99.79,14,Colton Smith #8,Olton,91.35,124.74,83.91,138.35,347,Single-ply,SBD,M
Boys,99.79,15,Mario Pineda,Amarillo Highland Park,97.98,102.06,70.31,163.29,335.66,Single-ply,SBD,M
Boys,99.79,16,Mondo Martinez,Post,98.88,113.4,68.04,140.61,322.05,Single-ply,SBD,M
Boys,99.79,17,Dallyn Clements,Panhandle,97.25,77.11,52.16,102.06,231.33,Single-ply,SBD,M
Boys,99.79,DQ,Vliem Drake,Midland,98.16,154.22,,,,Single-ply,SBD,M
Boys,109.77,1,Angelo Samaripa,Plainview,107.95,235.87,172.37,197.31,605.55,Single-ply,SBD,M
Boys,109.77,2,Levi Salinas,Slaton,100.15,226.8,138.35,226.8,591.94,Single-ply,SBD,M
Boys,109.77,3,Steven Leyendecker,Plainview,108.86,238.14,120.2,215.46,573.79,Single-ply,SBD,M
Boys,109.77,4,Ramiro Rodriguez,Lubbock Monterey,108.95,219.99,145.15,199.58,564.72,Single-ply,SBD,M
Boys,109.77,5,Chris Vargas,Midland,108.05,215.46,142.88,181.44,539.77,Single-ply,SBD,M
Boys,109.77,6,Lionel Sanchez,Midland,100.15,199.58,106.59,199.58,505.76,Single-ply,SBD,M
Boys,109.77,7,Colter Peck,Slaton,108.14,176.9,111.13,190.51,478.54,Single-ply,SBD,M
Boys,109.77,8,Santana Vera,Plainview,104.14,195.04,90.72,167.83,453.59,Single-ply,SBD,M
Boys,109.77,9,Kevin Bercerril,Perryton,109.5,163.29,113.4,174.63,451.32,Single-ply,SBD,M
Boys,109.77,10,Jaylen Owens,Plainview,101.42,172.37,102.06,167.83,442.25,Single-ply,SBD,M
Boys,109.77,11,Esai Sandoval,Olton,105.87,156.49,90.72,154.22,401.43,Single-ply,SBD,M
Boys,109.77,12,Robert Barker,Wolfforth Frenship,109.77,149.69,83.91,165.56,399.16,Single-ply,SBD,M
Boys,109.77,13,Kris Perez,Lubbock Monterey,108.23,136.08,106.59,149.69,392.36,Single-ply,SBD,M
Boys,109.77,14,Jake Allen #8,Lubbock Monterey,100.33,136.08,90.72,158.76,385.55,Single-ply,SBD,M
Boys,109.77,15,Ivan Gonzales,Hale Center,101.33,136.08,86.18,147.42,369.68,Single-ply,SBD,M
Boys,109.77,16,Many Munoz,Olton,107.86,151.95,68.04,142.88,362.87,Single-ply,SBD,M
Boys,109.77,17,Hagen Kelly,Plainview,104.51,129.27,83.91,145.15,358.34,Single-ply,SBD,M
Boys,109.77,18,Angel Vera,Dumas,107.05,102.06,88.45,122.47,312.98,Single-ply,SBD,M
Boys,109.77,19,Weldon Wright,Perryton,106.96,124.74,61.23,104.33,290.3,Single-ply,SBD,M
Boys,109.77,DQ,Dandrian Marion,Midland,108.68,161.03,83.91,,,Single-ply,SBD,M
Boys,109.77,DQ,Michael Leonard,Midland,107.86,156.49,,,,Single-ply,SBD,M
Boys,124.74,1,Marcos Hinojos Jr,Plainview,117.12,238.14,138.35,215.46,591.94,Single-ply,SBD,M
Boys,124.74,2,Dutton Watson,Midland,113.31,210.92,115.67,226.8,553.38,Single-ply,SBD,M
Boys,124.74,3,Chris Jones #16,Lubbock Monterey,119.2,181.44,127.01,219.99,528.44,Single-ply,SBD,M
Boys,124.74,4,Freddie Savage,Wolfforth Frenship,115.67,206.38,124.74,183.7,514.83,Single-ply,SBD,M
Boys,124.74,5,Trenton Merkel,Perryton,110.31,192.78,124.74,183.7,501.22,Single-ply,SBD,M
Boys,124.74,6,Eric Villegas,Midland,114.49,188.24,111.13,183.7,483.08,Single-ply,SBD,M
Boys,124.74,7,Homero Ramirez,Floydada,111.31,172.37,124.74,183.7,480.81,Single-ply,SBD,M
Boys,124.74,8,Cristian Murga,Dumas,112.13,151.95,113.4,208.65,474,Single-ply,SBD,M
Boys,124.74,9,Matt Abbot,Canyon,124.38,158.76,83.91,154.22,396.89,Single-ply,SBD,M
Boys,124.74,10,Derek Cherino,Crosbyton,116.3,145.15,81.65,145.15,371.95,Single-ply,SBD,M
Boys,124.74,11,Hank Perez,Dumas,122.83,136.08,92.99,142.88,371.95,Single-ply,SBD,M
Boys,124.74,12,ZR Smith,Slaton,113.13,106.59,61.23,95.25,263.08,Single-ply,SBD,M
Boys,124.74+,1,Zach Byars,Midland,148.78,213.19,113.4,215.46,542.04,Single-ply,SBD,M
Boys,124.74+,2,Marcus Burk,Canyon Randall,126.55,213.19,124.74,190.51,528.44,Single-ply,SBD,M
Boys,124.74+,3,Larson Crume,Wolfforth Frenship,147.05,195.04,117.93,192.78,505.76,Single-ply,SBD,M
Boys,124.74+,4,Michael Staudenraus,Slaton,130.82,204.12,108.86,188.24,501.22,Single-ply,SBD,M
Boys,124.74+,5,Bradley Boucher,Perryton,127.19,183.7,115.67,199.58,498.95,Single-ply,SBD,M
Boys,124.74+,6,James Martinez #4,Midland,128.46,199.58,111.13,181.44,492.15,Single-ply,SBD,M
Boys,124.74+,7,Quade Huckaba,Midland,126.37,181.44,102.06,195.04,478.54,Single-ply,SBD,M
Boys,124.74+,8,Jordan Copeland,Midland,136.71,163.29,111.13,192.78,467.2,Single-ply,SBD,M
Boys,124.74+,9,Kory Williams,Plainview,187.61,181.44,106.59,167.83,455.86,Single-ply,SBD,M
Boys,124.74+,10,Chance Kelly,Lubbock Monterey,126.46,165.56,120.2,156.49,442.25,Single-ply,SBD,M
Boys,124.74+,11,Seth Merriman,Canyon,156.58,127.01,104.33,167.83,399.16,Single-ply,SBD,M
Boys,124.74+,12,Wesley Escamilla,Amarillo Highland Park,152.95,154.22,79.38,161.03,394.63,Single-ply,SBD,M
Boys,124.74+,13,Taylor York,Wolfforth Frenship,132.36,149.69,102.06,136.08,387.82,Single-ply,SBD,M
Boys,,NS,Victor Rios,Slaton,,,,,,Single-ply,SBD,M
Boys,,NS,Andy Torres,Slaton,,,,,,Single-ply,SBD,M
Boys,,NS,Isaac Stern,Post,,,,,,Single-ply,SBD,M
Boys,,NS,Aaron Macy,Post,,,,,,Single-ply,SBD,M
Boys,,NS,Seth Babb,Post,,,,,,Single-ply,SBD,M
Boys,,NS,Alex Johnson #9,Canyon,,,,,,Single-ply,SBD,M
Boys,,NS,Pablito Duarte,Canyon,,,,,,Single-ply,SBD,M
Boys,,NS,Isaac Reyes,Canyon,,,,,,Single-ply,SBD,M
Boys,,NS,Shane Gentry,Crosbyton,,,,,,Single-ply,SBD,M
Boys,,NS,John Brock,Crosbyton,,,,,,Single-ply,SBD,M
Boys,,NS,Jake Bramlet,Lockney,,,,,,Single-ply,SBD,M
Boys,,NS,Magoo Grimaldo,Lubbock Monterey,,,,,,Single-ply,SBD,M
Boys,,NS,Grant Canis,Midland,,,,,,Single-ply,SBD,M
Boys,,NS,Collin Teale,Midland,,,,,,Single-ply,SBD,M
Boys,,NS,Clay Pena,Muleshoe,,,,,,Single-ply,SBD,M
Boys,,NS,Ryan Johnson #22,Muleshoe,,,,,,Single-ply,SBD,M
Boys,,NS,Josh Brown #10,Panhandle,,,,,,Single-ply,SBD,M
Boys,,NS,Nick Stephens,Panhandle,,,,,,Single-ply,SBD,M
Boys,,NS,Mikah Tice,Panhandle,,,,,,Single-ply,SBD,M
