Division,WeightClassKg,Place,Name,Team,BodyweightKg,Best3SquatKg,Best3BenchKg,Best3DeadliftKg,TotalKg,Equipment,Event,Sex
Boys,55.79,1,Gabe Garcia,Midland,51.89,120.2,65.77,158.76,344.73,Single-ply,SBD,M
Boys,51.71,2,Weston Griswold,Lazbuddie,51.26,122.47,70.31,149.69,342.46,Single-ply,SBD,M
Boys,51.71,3,Ivan Antuna,Plainview,48.44,108.86,68.04,133.81,310.71,Single-ply,SBD,M
Boys,51.71,4,Matt Longoria,Tulia,50.62,111.13,54.43,120.2,285.76,Single-ply,SBD,M
Boys,55.79,5,Zack Tovar,Abernathy,51.89,108.86,72.57,102.06,283.5,Single-ply,SBD,M
Boys,51.71,6,Corey Chavira,Levelland,51.35,108.86,49.9,115.67,274.42,Single-ply,SBD,M
Boys,51.71,7,Andrew Loera,Wellman-Union,51.62,83.91,61.23,124.74,269.89,Single-ply,SBD,M
Boys,51.71,8,Jose Hernandez #2,Midland Greenwood,50.53,90.72,52.16,117.93,260.82,Single-ply,SBD,M
Boys,51.71,9,Jorge Guitron,Sudan,51.17,79.38,68.04,111.13,258.55,Single-ply,SBD,M
Boys,51.71,10,Ryan Shemwell,Panhandle,49.62,95.25,54.43,102.06,251.74,Single-ply,SBD,M
Boys,51.71,11,Jonathon Mendez,Midland Lee,49.17,79.38,52.16,102.06,233.6,Single-ply,SBD,M
Boys,51.71,DQ,Jonathon Luna,Tulia,50.44,,,,,Single-ply,SBD,M
Boys,51.71,DQ,Kirby Bailey,Wellman-Union,48.53,70.31,,,,Single-ply,SBD,M
Boys,51.71,DQ,Freddy Pavez,Panhandle,49.9,,,,,Single-ply,SBD,M
Boys,51.71,DQ,Kelby Anderson,Seminole,50.98,,,,,Single-ply,SBD,M
Boys,55.79,1,Shimar Jennings,Plainview,52.98,161.03,90.72,170.1,421.84,Single-ply,SBD,M
Boys,55.79,2,Troy Morales,Floydada,54.61,158.76,92.99,163.29,415.04,Single-ply,SBD,M
Boys,55.79,3,Jaime Longoria,Levelland,55.25,142.88,88.45,151.95,383.29,Single-ply,SBD,M
Boys,59.87,4,Levi Mills,Levelland,55.88,147.42,83.91,147.42,378.75,Single-ply,SBD,M
Boys,55.79,5,Eric Rivas,Seagraves,54.88,133.81,77.11,136.08,347,Single-ply,SBD,M
Boys,55.79,6,Frankie Mendoza,Abernathy,54.34,99.79,72.57,140.61,312.98,Single-ply,SBD,M
Boys,55.79,7,Joseph Campos,Midland,55.07,120.2,58.97,133.81,312.98,Single-ply,SBD,M
Boys,55.79,8,Ramiro Carmona,Bovina,53.34,81.65,52.16,117.93,251.74,Single-ply,SBD,M
Boys,67.13,1,Angel Guerrero,Levelland,60.01,197.31,95.25,190.51,483.08,Single-ply,SBD,M
Boys,59.87,2,DJ Brown,Post,59.42,163.29,83.91,170.1,417.3,Single-ply,SBD,M
Boys,59.87,3,Dimas Rodriguez,Plainview,59.06,158.76,99.79,156.49,415.04,Single-ply,SBD,M
Boys,59.87,4,Ben Alvarez,Floydada,59.42,140.61,102.06,170.1,412.77,Single-ply,SBD,M
Boys,59.87,5,Jonathan Valderas,Levelland,59.15,167.83,88.45,154.22,410.5,Single-ply,SBD,M
Boys,59.87,6,Kiley Davila,Wellman-Union,58.69,147.42,88.45,165.56,401.43,Single-ply,SBD,M
Boys,67.13,7,Jaden Hatley,Seminole,59.96,136.08,70.31,136.08,342.46,Single-ply,SBD,M
Boys,67.13,8,Julius DeLaCruz,Lamesa,59.96,124.74,74.84,142.88,342.46,Single-ply,SBD,M
Boys,59.87,9,Nic Miramontes,Odessa,59.42,133.81,68.04,138.35,340.19,Single-ply,SBD,M
Boys,59.87,10,David Denton,Wolfforth Frenship,59.87,124.74,70.31,136.08,331.12,Single-ply,SBD,M
Boys,59.87,11,Cesar Medrano,Sudan,58.79,111.13,79.38,136.08,326.59,Single-ply,SBD,M
Boys,59.87,12,Levi Wright,Slaton,56.61,124.74,70.31,122.47,317.51,Single-ply,SBD,M
Boys,59.87,13,Braylin Moreland,Midland Greenwood,58.69,113.4,72.57,129.27,315.25,Single-ply,SBD,M
Boys,59.87,14,German Martinez,Midland Greenwood,56.7,111.13,68.04,129.27,308.44,Single-ply,SBD,M
Boys,59.87,15,Jake Samaniego,Lamesa,59.15,111.13,65.77,120.2,297.1,Single-ply,SBD,M
Boys,59.87,16,Zack Wilkins,Plains,58.15,97.52,52.16,106.59,256.28,Single-ply,SBD,M
Boys,59.87,DQ,Koby Perez,Shallowater,59.87,,,,,Single-ply,SBD,M
Boys,59.87,DQ,Eric Fira,Crosbyton,59.87,,,,,Single-ply,SBD,M
Boys,59.87,DQ,Shane Gentry,Crosbyton,59.87,,,,,Single-ply,SBD,M
Boys,59.87,DQ,Jj Garcia,Tulia,56.34,120.2,,,,Single-ply,SBD,M
Boys,59.87,DQ,Salvador Salamanca,Sudan,59.06,102.06,,,,Single-ply,SBD,M
Boys,59.87,DQ,Rye Akervik,Panhandle,59.51,,,,,Single-ply,SBD,M
Boys,67.13,1,Dusty Ortiz,Lamesa,66.68,192.78,108.86,195.04,496.68,Single-ply,SBD,M
Boys,67.13,2,Coe Kubicek,Seminole,62.23,183.7,111.13,183.7,478.54,Single-ply,SBD,M
Boys,67.13,3,Alfredo Sanchez,Muleshoe,65.32,174.63,95.25,190.51,460.4,Single-ply,SBD,M
Boys,67.13,4,Casey Sanders,Wolfforth Frenship,66.22,170.1,102.06,181.44,453.59,Single-ply,SBD,M
Boys,67.13,5,Robert Clanton,Midland Greenwood,66.22,172.37,86.18,183.7,442.25,Single-ply,SBD,M
Boys,67.13,6,Cesar Chavez,Midland,64.77,161.03,88.45,181.44,430.91,Single-ply,SBD,M
Boys,67.13,7,Kristian Guajardo,Lamesa,66.59,151.95,97.52,172.37,421.84,Single-ply,SBD,M
Boys,67.13,8,Michael Soto,Wolfforth Frenship,66.04,147.42,102.06,170.1,419.57,Single-ply,SBD,M
Boys,67.13,9,Marco Terrones,Friona,64.05,154.22,92.99,170.1,417.3,Single-ply,SBD,M
Boys,67.13,10,Trey Cave,Midland Greenwood,63.23,151.95,90.72,158.76,401.43,Single-ply,SBD,M
Boys,67.13,11,Jordan Sircable,Wolfforth Frenship,65.5,158.76,74.84,142.88,376.48,Single-ply,SBD,M
Boys,67.13,12,Gage Rowden,Wellman-Union,66.77,133.81,90.72,149.69,374.21,Single-ply,SBD,M
Boys,67.13,13,Dillon Stevens,Wolfforth Frenship,65.5,145.15,74.84,142.88,362.87,Single-ply,SBD,M
Boys,67.13,14,Austin Ross,Muleshoe,66.68,124.74,77.11,161.03,362.87,Single-ply,SBD,M
Boys,67.13,15,Caelon Gibson,Lamesa,61.78,120.2,74.84,154.22,349.27,Single-ply,SBD,M
Boys,67.13,16,Steven Smallwood,Levelland,66.72,133.81,79.38,136.08,349.27,Single-ply,SBD,M
Boys,67.13,17,Matthew Guajardo,Levelland,66.95,138.35,68.04,142.88,349.27,Single-ply,SBD,M
Boys,67.13,18,Rushie McKenzie,Wellman-Union,65.95,136.08,72.57,136.08,344.73,Single-ply,SBD,M
Boys,67.13,19,Junior Triana,Muleshoe,63.41,136.08,68.04,138.35,342.46,Single-ply,SBD,M
Boys,67.13,20,Betio Champion,Abernathy,64.5,122.47,86.18,131.54,340.19,Single-ply,SBD,M
Boys,67.13,21,Zach Strickland,Shallowater,66.68,113.4,81.65,142.88,337.93,Single-ply,SBD,M
Boys,67.13,22,Eddy Garcia,Friona,62.05,122.47,70.31,140.61,333.39,Single-ply,SBD,M
Boys,74.84,23,David Velo,Bovina,67.36,111.13,68.04,133.81,312.98,Single-ply,SBD,M
Boys,67.13,24,Cole Gatzki,Plains,61.6,113.4,68.04,124.74,306.17,Single-ply,SBD,M
Boys,67.13,25,Logan Gersbach,Seminole,60.69,111.13,68.04,124.74,303.91,Single-ply,SBD,M
Boys,67.13,26,Riley Justice,Midland Lee,62.78,102.06,63.5,129.27,294.84,Single-ply,SBD,M
Boys,67.13,27,Angel Cantu,Levelland,65.23,90.72,74.84,129.27,294.84,Single-ply,SBD,M
Boys,67.13,28,Andres Vasquez,Levelland,65.91,113.4,61.23,117.93,292.57,Single-ply,SBD,M
Boys,67.13,29,Evan Shedd,Levelland,65.59,106.59,68.04,113.4,288.03,Single-ply,SBD,M
Boys,67.13,30,Stefon Knoll,Bovina,65.68,86.18,72.57,129.27,288.03,Single-ply,SBD,M
Boys,67.13,31,Bryan Garcia,Bovina,62.6,102.06,54.43,111.13,267.62,Single-ply,SBD,M
Boys,67.13,32,Mitchell Monk,Levelland,65.14,102.06,56.7,106.59,265.35,Single-ply,SBD,M
Boys,67.13,33,Austin Ellison,Whiteface,60.96,88.45,61.23,113.4,263.08,Single-ply,SBD,M
Boys,67.13,34,Abel Martinez,Bovina,63.96,92.99,54.43,113.4,260.82,Single-ply,SBD,M
Boys,67.13,DQ,Choeung Sei,Snyder,67.13,,,,,Single-ply,SBD,M
Boys,67.13,DQ,Josh Brown #10,Panhandle,67.13,,,,,Single-ply,SBD,M
Boys,67.13,DQ,Adrian Chavez,Panhandle,67.13,,,,,Single-ply,SBD,M
Boys,67.13,DQ,Ramon Juarez,Seminole,67.13,158.76,,,,Single-ply,SBD,M
Boys,67.13,DQ,Isaac Stern,Post,62.96,129.27,,,,Single-ply,SBD,M
Boys,67.13,DQ,Cullen Holt,Plainview,63.5,,,,,Single-ply,SBD,M
Boys,67.13,DQ,Dex Baker,Sudan,65.5,113.4,,,,Single-ply,SBD,M
Boys,67.13,DQ,Robert Vernon,Crosbyton,62.23,,,,,Single-ply,SBD,M
Boys,74.84,1,Alan Rivera,Plainview,73.94,244.94,124.74,222.26,591.94,Single-ply,SBD,M
Boys,74.84,2,Blaze Wooten,Midland,74.75,206.38,106.59,210.92,523.9,Single-ply,SBD,M
Boys,74.84,3,Luis Juarez,Midland,74.39,188.24,99.79,201.85,489.88,Single-ply,SBD,M
Boys,74.84,4,John Crutcher,Wellman-Union,72.03,174.63,117.93,190.51,483.08,Single-ply,SBD,M
Boys,74.84,5,Kevin Williams,Wolfforth Frenship,72.03,179.17,108.86,181.44,469.47,Single-ply,SBD,M
Boys,74.84,6,Chandler Green,Levelland,73.21,176.9,104.33,188.24,469.47,Single-ply,SBD,M
Boys,74.84,7,Adan Martinez,Odessa,74.3,181.44,104.33,181.44,467.2,Single-ply,SBD,M
Boys,74.84,8,Pablo Jimenez,Plainview,73.3,170.1,97.52,195.04,462.66,Single-ply,SBD,M
Boys,74.84,9,Matthew Fennimore,Slaton,68.67,183.7,95.25,170.1,449.06,Single-ply,SBD,M
Boys,74.84,10,Stetson Hilger,Midland Greenwood,73.3,156.49,117.93,167.83,442.25,Single-ply,SBD,M
Boys,74.84,11,Noah DiSalvo,Plainview,70.58,149.69,102.06,185.97,437.72,Single-ply,SBD,M
Boys,74.84,12,Luke Sherman,Lockney,72.57,156.49,99.79,167.83,424.11,Single-ply,SBD,M
Boys,74.84,13,Jake Bramlet,Lockney,71.21,158.76,92.99,163.29,415.04,Single-ply,SBD,M
Boys,82.1,14,Nick Stephens,Panhandle,74.93,156.49,74.84,183.7,415.04,Single-ply,SBD,M
Boys,74.84,15,Matthew Race,Levelland,69.04,145.15,81.65,181.44,408.23,Single-ply,SBD,M
Boys,74.84,16,Eric Waters,Abernathy,73.57,158.76,74.84,174.63,408.23,Single-ply,SBD,M
Boys,74.84,17,Justin Esch,Plains,72.94,140.61,83.91,181.44,405.97,Single-ply,SBD,M
Boys,74.84,18,Dustin Rea,Midland Greenwood,72.03,149.69,97.52,151.95,399.16,Single-ply,SBD,M
Boys,74.84,19,Justin Robinson #5,Wolfforth Frenship,70.31,149.69,92.99,149.69,392.36,Single-ply,SBD,M
Boys,74.84,20,Dallas Cox,Lazbuddie,71.21,131.54,79.38,181.44,392.36,Single-ply,SBD,M
Boys,74.84,21,Marcus Salinas,Midland,70.58,129.27,86.18,174.63,390.09,Single-ply,SBD,M
Boys,74.84,22,Dumarcus Austin,Midland Lee,70.58,136.08,83.91,161.03,381.02,Single-ply,SBD,M
Boys,74.84,23,Juan Cabrera,Post,71.12,147.42,81.65,147.42,376.48,Single-ply,SBD,M
Boys,74.84,24,William Ratton,Wolfforth Frenship,71.4,136.08,90.72,142.88,369.68,Single-ply,SBD,M
Boys,74.84,25,Alejandro Guevara,Bovina,70.13,124.74,77.11,151.95,353.8,Single-ply,SBD,M
Boys,74.84,26,Caden Dean,Post,67.86,129.27,90.72,131.54,351.53,Single-ply,SBD,M
Boys,74.84,27,Daravion Williams,Midland Lee,69.22,122.47,74.84,154.22,351.53,Single-ply,SBD,M
Boys,74.84,28,Evaristo Rodriguez,Levelland,74.43,124.74,90.72,133.81,349.27,Single-ply,SBD,M
Boys,82.1,29,Jose Trejo,Sudan,74.93,117.93,68.04,151.95,337.93,Single-ply,SBD,M
Boys,74.84,30,Kaleb Chase,Wellman-Union,68.86,117.93,68.04,136.08,322.05,Single-ply,SBD,M
Boys,74.84,31,Cesar Saldana,Odessa,69.49,108.86,68.04,145.15,322.05,Single-ply,SBD,M
Boys,74.84,32,Matt Gerber,Levelland,74.62,108.86,72.57,136.08,317.51,Single-ply,SBD,M
Boys,74.84,33,Caden Coots,Midland Lee,73.48,97.52,72.57,133.81,303.91,Single-ply,SBD,M
Boys,74.84,34,Nathan Bailey,Midland Lee,72.57,111.13,61.23,129.27,301.64,Single-ply,SBD,M
Boys,74.84,35,Caleb Calvert,Midland Lee,72.76,102.06,68.04,117.93,288.03,Single-ply,SBD,M
Boys,74.84,36,Hector Lopez,Bovina,73.57,97.52,52.16,111.13,260.82,Single-ply,SBD,M
Boys,74.84,37,Logan Falkenbury,Whiteface,72.03,90.72,54.43,88.45,233.6,Single-ply,SBD,M
Boys,82.1,DQ,Semaj Cole,Seagraves,75.07,,,,,Single-ply,SBD,M
Boys,74.84,DQ,Chris Guzman,Crosbyton,74.84,,,,,Single-ply,SBD,M
Boys,74.84,DQ,Reymundo Salinas,Crosbyton,74.84,,,,,Single-ply,SBD,M
Boys,74.84,DQ,Brenner Fox,Crosbyton,70.03,145.15,93.44,,,Single-ply,SBD,M
Boys,74.84,DQ,Ivan Melendez,Midland,70.13,136.08,81.65,,,Single-ply,SBD,M
Boys,82.1,DQ,Adam Jones #6,Panhandle,75.02,95.25,47.63,,,Single-ply,SBD,M
Boys,82.1,1,Corey Richardson,Levelland,78.15,208.65,129.27,215.46,553.38,Single-ply,SBD,M
Boys,82.1,2,Adrian Gonzales,Plainview,78.47,181.44,117.93,206.38,505.76,Single-ply,SBD,M
Boys,82.1,3,Aldo Marquez,Plainview,78.2,206.38,95.25,199.58,501.22,Single-ply,SBD,M
Boys,82.1,4,Sergio Leyva,Odessa,80.83,190.51,111.13,195.04,496.68,Single-ply,SBD,M
Boys,82.1,5,Andrew Dunlap,Plainview,81.74,181.44,117.93,185.97,485.34,Single-ply,SBD,M
Boys,82.1,6,Rojelio Valenzuela,Midland,80.2,181.44,97.52,197.31,476.27,Single-ply,SBD,M
Boys,82.1,7,Nathaniel Gill,Post,81.19,181.44,83.91,188.24,453.59,Single-ply,SBD,M
Boys,82.1,8,Andrew Mendez,Wolfforth Frenship,81.19,161.03,97.52,195.04,453.59,Single-ply,SBD,M
Boys,82.1,9,Fabian Sanchez,Odessa,79.83,185.97,92.99,172.37,451.32,Single-ply,SBD,M
Boys,82.1,10,Conner MacNair,Wolfforth Frenship,77.84,165.56,95.25,188.24,449.06,Single-ply,SBD,M
Boys,82.1,11,Ben Lindsey,Wellman-Union,78.93,165.56,102.06,181.44,449.06,Single-ply,SBD,M
Boys,82.1,12,Christian Lucio,Muleshoe,78.02,172.37,90.72,174.63,437.72,Single-ply,SBD,M
Boys,82.1,13,Edward Valdez,Plains,81.56,165.56,95.25,176.9,437.72,Single-ply,SBD,M
Boys,82.1,14,Adam Moncibais,Snyder,81.92,161.03,111.13,163.29,435.45,Single-ply,SBD,M
Boys,82.1,15,Shelby Mobley,Odessa,81.19,170.1,92.99,167.83,430.91,Single-ply,SBD,M
Boys,82.1,16,Sawyer Benavides,Odessa,80.01,154.22,113.4,154.22,421.84,Single-ply,SBD,M
Boys,82.1,17,Blake Smith,Midland Greenwood,80.38,165.56,74.84,181.44,421.84,Single-ply,SBD,M
Boys,82.1,18,Michael Garcia #9,Friona,75.21,158.76,95.25,156.49,410.5,Single-ply,SBD,M
Boys,82.1,19,Nick Runkles,Levelland,80.29,158.76,90.72,158.76,408.23,Single-ply,SBD,M
Boys,82.1,20,Zach Ponder,Plainview,76.2,161.03,83.91,161.03,405.97,Single-ply,SBD,M
Boys,82.1,21,Uriel Delgado,Sudan,75.52,161.03,81.65,158.76,401.43,Single-ply,SBD,M
Boys,82.1,22,Arnoldo Santellano,Abernathy,77.84,147.42,83.91,170.1,401.43,Single-ply,SBD,M
Boys,82.1,23,Quentin Valentine,Plainview,78.65,158.76,86.18,156.49,401.43,Single-ply,SBD,M
Boys,82.1,24,Jose Arvizu,Plainview,81.19,158.76,74.84,161.03,394.63,Single-ply,SBD,M
Boys,82.1,25,Angel Fierro,Levelland,81.96,145.15,90.72,151.95,387.82,Single-ply,SBD,M
Boys,82.1,26,Eddie Sanchez,Lamesa,78.02,142.88,79.38,151.95,374.21,Single-ply,SBD,M
Boys,82.1,27,Nicholas Anna,Plains,75.39,117.93,68.04,158.76,344.73,Single-ply,SBD,M
Boys,89.81,28,Nathan Rodriguez,Levelland,82.33,133.81,79.38,124.74,337.93,Single-ply,SBD,M
Boys,82.1,29,Travis Baur,Midland,79.65,124.74,61.23,149.69,335.66,Single-ply,SBD,M
Boys,82.1,30,Jory Flores,Shallowater,81.1,108.86,81.65,140.61,331.12,Single-ply,SBD,M
Boys,82.1,31,Cory Throgmorton,Panhandle,76.84,113.4,86.18,124.74,324.32,Single-ply,SBD,M
Boys,82.1,32,Damion Montes,Sudan,80.1,129.27,65.77,122.47,317.51,Single-ply,SBD,M
Boys,82.1,33,Alex Ovalle,Friona,76.75,122.47,63.5,127.01,312.98,Single-ply,SBD,M
Boys,82.1,34,Tyler Perez,Levelland,82.01,117.93,61.23,124.74,303.91,Single-ply,SBD,M
Boys,82.1,35,Edwin Delgado,Sudan,77.84,115.67,63.5,120.2,299.37,Single-ply,SBD,M
Boys,82.1,36,Ced Elmore,Whiteface,77.2,108.86,65.77,108.86,283.5,Single-ply,SBD,M
Boys,82.1,37,Alexis Oliva,Bovina,79.02,92.99,61.23,108.86,263.08,Single-ply,SBD,M
Boys,82.1,DQ,William Varela,Snyder,82.1,,,,,Single-ply,SBD,M
Boys,89.81,DQ,Alex Barrientes,Plains,82.33,,,,,Single-ply,SBD,M
Boys,82.1,DQ,Adrian Prieto,Friona,75.84,136.08,83.91,,,Single-ply,SBD,M
Boys,82.1,DQ,Eddie Garcia,Odessa,81.74,233.6,,,,Single-ply,SBD,M
Boys,89.81,1,Marquise Clater,Midland,88.72,240.4,129.27,240.4,610.08,Single-ply,SBD,M
Boys,89.81,2,Duncan Welch,Friona,89.81,192.78,147.42,219.99,560.19,Single-ply,SBD,M
Boys,89.81,3,Paden Cornett,Seagraves,89.36,210.92,131.54,206.38,548.85,Single-ply,SBD,M
Boys,89.81,4,Shaq Thompson,Lockney,82.74,204.12,142.88,195.04,542.04,Single-ply,SBD,M
Boys,89.81,5,Johnathan Passaron,Midland,86,195.04,106.59,215.46,517.1,Single-ply,SBD,M
Boys,89.81,6,Jordan Aguilar,Post,83.19,204.12,104.33,183.7,492.15,Single-ply,SBD,M
Boys,89.81,7,Matthew Samarron,Lazbuddie,87.72,190.51,106.59,195.04,492.15,Single-ply,SBD,M
Boys,89.81,8,Efren Gonzales,Odessa,84.37,179.17,124.74,183.7,487.61,Single-ply,SBD,M
Boys,89.81,9,Stetson Casey,Wolfforth Frenship,82.92,179.17,111.13,192.78,483.08,Single-ply,SBD,M
Boys,89.81,10,Jhett Wilcox,Whiteface,83.28,163.29,113.4,197.31,474,Single-ply,SBD,M
Boys,89.81,11,Eduardo Rojas,Friona,83.46,185.97,102.06,185.97,474,Single-ply,SBD,M
Boys,89.81,12,Spencer Benavides,Odessa,83.46,161.03,113.4,161.03,435.45,Single-ply,SBD,M
Boys,89.81,13,Anthony Tapia,Friona,88.45,161.03,99.79,158.76,419.57,Single-ply,SBD,M
Boys,89.81,14,Corbin McCullough,Midland,84.19,149.69,102.06,161.03,412.77,Single-ply,SBD,M
Boys,89.81,15,Jacob Burtch,Seminole,84.28,142.88,104.33,158.76,405.97,Single-ply,SBD,M
Boys,89.81,16,Ty Lust,Abernathy,84.19,156.49,92.99,145.15,394.63,Single-ply,SBD,M
Boys,89.81,17,Abel Palacios,Friona,85.09,149.69,77.11,161.03,387.82,Single-ply,SBD,M
Boys,89.81,18,Daniel Soltero,Friona,82.74,142.88,86.18,154.22,383.29,Single-ply,SBD,M
Boys,89.81,19,Brendan Voss,Plainview,85.46,138.35,86.18,158.76,383.29,Single-ply,SBD,M
Boys,89.81,20,Jerrardo Ruelas,Levelland,87.45,142.88,97.52,133.81,374.21,Single-ply,SBD,M
Boys,89.81,21,Relandus Swann,Midland Lee,85.28,129.27,65.77,142.88,337.93,Single-ply,SBD,M
Boys,89.81,22,John James,Midland Lee,88.99,102.06,79.38,142.88,324.32,Single-ply,SBD,M
Boys,89.81,23,Daniel Marquez,Midland Lee,82.83,104.33,61.23,129.27,294.84,Single-ply,SBD,M
Boys,89.81,DQ,Carson Cleavinger,Levelland,82.42,,,,,Single-ply,SBD,M
Boys,89.81,DQ,Austin Zundt,Crosbyton,83.91,,,,,Single-ply,SBD,M
Boys,89.81,DQ,Taylor Jones #3,Midland Lee,83.46,102.06,,,,Single-ply,SBD,M
Boys,89.81,DQ,Derrick Fitzpatrick,Midland Greenwood,86,149.69,,,,Single-ply,SBD,M
Boys,89.81,DQ,Collin Fulton,Lockney,89.36,,,,,Single-ply,SBD,M
Boys,89.81,DQ,Richie Allen,Wellman-Union,89.09,219.99,,,,Single-ply,SBD,M
Boys,89.81,DQ,Jake Johnson #5,Whiteface,85.37,108.86,,,,Single-ply,SBD,M
Boys,99.79,1,Zach Subealdea,Plainview,97.25,254.01,129.27,238.14,621.42,Single-ply,SBD,M
Boys,99.79,2,Shaquille Walters,Midland Greenwood,98.79,217.72,115.67,226.8,560.19,Single-ply,SBD,M
Boys,99.79,3,Santiago Fabela,Plainview,95.35,204.12,142.88,199.58,546.58,Single-ply,SBD,M
Boys,99.79,4,Lionel Sanchez,Midland,97.07,199.58,111.13,208.65,519.36,Single-ply,SBD,M
Boys,99.79,5,Danny Montelongo,Plainview,96.98,188.24,131.54,197.31,517.1,Single-ply,SBD,M
Boys,99.79,6,Shane Smith,Levelland,90.72,188.24,102.06,197.31,487.61,Single-ply,SBD,M
Boys,99.79,7,Roman Romero,Snyder,96.62,192.78,122.47,163.29,478.54,Single-ply,SBD,M
Boys,99.79,8,Anthony Rubio,Midland,92.35,170.1,111.13,192.78,474,Single-ply,SBD,M
Boys,99.79,9,Ryan Johnson #22,Muleshoe,92.08,181.44,108.86,174.63,464.93,Single-ply,SBD,M
Boys,99.79,10,Marcos Mercado,Lockney,92.08,174.63,111.13,174.63,460.4,Single-ply,SBD,M
Boys,99.79,11,Matt Foster,Wolfforth Frenship,94.08,185.97,81.65,185.97,453.59,Single-ply,SBD,M
Boys,99.79,12,Chris Thomas,Slaton,96.62,192.78,99.79,161.03,453.59,Single-ply,SBD,M
Boys,99.79,13,Drake Vlien,Midland,96.16,158.76,88.45,192.78,439.98,Single-ply,SBD,M
Boys,99.79,14,Eddie Campos,Levelland,92.26,181.44,115.67,140.61,437.72,Single-ply,SBD,M
Boys,99.79,15,Gabrial Gonzales,Plainview,94.8,156.49,102.06,154.22,412.77,Single-ply,SBD,M
Boys,99.79,16,Jordan Dyck,Seminole,98.7,142.88,108.86,140.61,392.36,Single-ply,SBD,M
Boys,99.79,17,Mondo Martinez,Post,99.25,151.95,74.84,158.76,385.55,Single-ply,SBD,M
Boys,99.79,18,Juan Sosa,Odessa,94.71,140.61,79.38,124.74,344.73,Single-ply,SBD,M
Boys,99.79,19,Thomas Sanchez,Levelland,92.08,90.72,68.04,113.4,272.16,Single-ply,SBD,M
Boys,99.79,DQ,Daniel Diaz,Wolfforth Frenship,97.07,158.76,,,,Single-ply,SBD,M
Boys,99.79,DQ,Jt Holder,Whiteface,99.79,,,,,Single-ply,SBD,M
Boys,109.77,1,Angelo Samaripa,Plainview,103.6,272.16,174.63,226.8,673.58,Single-ply,SBD,M
Boys,124.74,2,Jose Flores #6,Seminole,109.95,235.87,154.22,229.06,619.15,Single-ply,SBD,M
Boys,109.77,3,Trae Taylor,Levelland,103.51,249.48,140.61,226.8,616.89,Single-ply,SBD,M
Boys,109.77,4,Steven Leyendecker,Plainview,106.96,240.4,120.2,219.99,580.6,Single-ply,SBD,M
Boys,109.77,5,Joseph DeOchoa,Floydada,105.05,226.8,131.54,215.46,573.79,Single-ply,SBD,M
Boys,109.77,6,Brandon Lujan,Seminole,109.59,219.99,108.86,181.44,510.29,Single-ply,SBD,M
Boys,109.77,7,Matt Cruz,Abernathy,100.7,199.58,102.06,201.85,503.49,Single-ply,SBD,M
Boys,109.77,8,Cody Dykstra,Odessa,105.32,176.9,129.27,190.51,496.68,Single-ply,SBD,M
Boys,109.77,9,Todd Padilla,Friona,102.15,181.44,115.67,185.97,483.08,Single-ply,SBD,M
Boys,109.77,10,Colter Peck,Slaton,105.69,183.7,108.86,183.7,476.27,Single-ply,SBD,M
Boys,109.77,11,Hugo Sanchez,Odessa,107.77,170.1,113.4,190.51,474,Single-ply,SBD,M
Boys,109.77,12,Broyon Perez,Seagraves,103.78,174.63,106.59,190.51,471.74,Single-ply,SBD,M
Boys,109.77,13,Victor Perez,Lamesa,108.32,176.9,90.72,176.9,444.52,Single-ply,SBD,M
Boys,109.77,14,Austin Wills,Wolfforth Frenship,102.51,149.69,106.59,183.7,439.98,Single-ply,SBD,M
Boys,109.77,15,Davorian Marion,Midland,105.96,190.51,92.99,142.88,426.38,Single-ply,SBD,M
Boys,109.77,16,Santana Benitez,Abernathy,101.88,161.03,72.57,181.44,415.04,Single-ply,SBD,M
Boys,109.77,17,Aaron Harden #2,Odessa,102.06,158.76,88.45,149.69,396.89,Single-ply,SBD,M
Boys,109.77,18,Librado Chavarria,Floydada,108.68,158.76,83.91,147.42,390.09,Single-ply,SBD,M
Boys,109.77,19,Brandon Cox,Whiteface,103.87,151.95,74.84,154.22,381.02,Single-ply,SBD,M
Boys,109.77,20,Garrett Grear,Midland Lee,101.24,129.27,70.31,136.08,335.66,Single-ply,SBD,M
Boys,109.77,21,Diego Alvarado,Midland Lee,101.15,92.99,79.38,149.69,322.05,Single-ply,SBD,M
Boys,109.77,DQ,Casey Coward,Snyder,109.77,,,,,Single-ply,SBD,M
Boys,109.77,DQ,Ty Guffey,Seminole,109.77,,,,,Single-ply,SBD,M
Boys,109.77,DQ,Stephen Wiggins,Shallowater,101.15,190.51,,,,Single-ply,SBD,M
Boys,109.77,DQ,Robert Barker,Wolfforth Frenship,108.59,204.12,,,,Single-ply,SBD,M
Boys,109.77,DQ,Garret Devault,Midland Lee,108.14,79.38,,,,Single-ply,SBD,M
Boys,109.77,DQ,Vincent Machuca,Midland Lee,107.68,158.76,,,,Single-ply,SBD,M
Boys,124.74,1,Marcos Hinojos Jr,Plainview,116.48,249.48,147.42,226.8,623.69,Single-ply,SBD,M
Boys,124.74,2,Sergio Vidales,Levelland,115.21,226.8,158.76,181.44,566.99,Single-ply,SBD,M
Boys,124.74,3,Freddie Savage,Wolfforth Frenship,116.57,235.87,122.47,195.04,553.38,Single-ply,SBD,M
Boys,124.74,4,Dutton Watson,Midland,111.13,219.99,115.67,204.12,539.77,Single-ply,SBD,M
Boys,124.74,5,Eric Villegas,Midland,112.22,231.33,102.06,204.12,537.51,Single-ply,SBD,M
Boys,124.74,6,James Martinez #4,Midland,123.38,226.8,102.06,192.78,521.63,Single-ply,SBD,M
Boys,124.74,7,Homero Ramirez,Floydada,114.58,197.31,124.74,197.31,519.36,Single-ply,SBD,M
Boys,124.74,8,Grant Canis,Midland,119.2,226.8,97.52,190.51,514.83,Single-ply,SBD,M
Boys,124.74,9,Cj Casas,Snyder,112.85,185.97,117.93,206.38,510.29,Single-ply,SBD,M
Boys,124.74,10,Michael Nguyen,Midland Greenwood,115.85,183.7,92.99,170.1,446.79,Single-ply,SBD,M
Boys,124.74,11,Eduardo Lizalde,Odessa,112.67,176.9,92.99,142.88,412.77,Single-ply,SBD,M
Boys,124.74,12,Derek Cherino,Crosbyton,117.39,158.76,74.84,151.95,385.55,Single-ply,SBD,M
Boys,124.74,13,Chad Milne,Midland Lee,112.58,111.13,86.18,142.88,340.19,Single-ply,SBD,M
Boys,124.74,14,ZR Smith,Slaton,110.31,115.67,61.23,120.2,297.1,Single-ply,SBD,M
Boys,124.74,DQ,Cruz Melendez,Odessa,110.31,,,,,Single-ply,SBD,M
Boys,124.74+,1,Al Valderas,Levelland,156.76,317.51,158.76,208.65,684.92,Single-ply,SBD,M
Boys,124.74+,2,Clayton Smiley,Friona,153.13,272.16,147.42,238.14,657.71,Single-ply,SBD,M
Boys,124.74+,3,Tanner Thomason,Plains,127.19,210.92,122.47,235.87,569.26,Single-ply,SBD,M
Boys,124.74+,4,Matthew Olivarez,Sudan,152.95,215.46,124.74,217.72,557.92,Single-ply,SBD,M
Boys,124.74+,5,Corey Williams,Plainview,184.25,204.12,108.86,226.8,539.77,Single-ply,SBD,M
Boys,124.74+,6,Marquise Trevino,Muleshoe,138.89,181.44,124.74,226.8,532.97,Single-ply,SBD,M
Boys,124.74+,7,Patrick Corrasco,Odessa,131.54,204.12,149.69,165.56,519.36,Single-ply,SBD,M
Boys,124.74+,8,Larson Crume,Wolfforth Frenship,146.78,204.12,113.4,199.58,517.1,Single-ply,SBD,M
Boys,124.74+,9,Batai Grisonno,Shallowater,144.24,190.51,90.72,226.8,508.02,Single-ply,SBD,M
Boys,124.74+,10,Hayden Meek,Snyder,151.86,192.78,117.93,192.78,503.49,Single-ply,SBD,M
Boys,124.74+,11,Steven Manahan,Levelland,129.36,183.7,127.01,185.97,496.68,Single-ply,SBD,M
Boys,124.74+,12,Jesse Ramirez #1,Odessa,138.89,165.56,124.74,199.58,489.88,Single-ply,SBD,M
Boys,124.74+,13,Jordan Copeland,Midland,134.26,181.44,115.67,188.24,485.34,Single-ply,SBD,M
Boys,124.74+,14,Daniel Meza,Friona,160.48,188.24,115.67,181.44,485.34,Single-ply,SBD,M
Boys,124.74+,15,Taylor York,Wolfforth Frenship,132,185.97,106.59,170.1,462.66,Single-ply,SBD,M
Boys,124.74+,16,Gerardo Martinez,Plains,128.28,165.56,92.99,174.63,433.18,Single-ply,SBD,M
Boys,124.74+,17,Julian Martinez,Bovina,125.65,147.42,72.57,149.69,369.68,Single-ply,SBD,M
Boys,124.74+,DQ,Truitt Pierce,Shallowater,131.54,,,,,Single-ply,SBD,M
Boys,124.74+,DQ,Michael Staudenraus,Slaton,127.01,,,,,Single-ply,SBD,M
