Name,Country,Sex,BirthYear,Age,Division,WeightClassKg,BodyweightKg,Bench1Kg,Bench2Kg,Bench3Kg,Best3BenchKg,TotalKg,Place,Event,Equipment,BirthDate
Mihkel Laurits,Estonia,M,1944,79,Masters 4,120,105.9,110,115,-120,115,115,2,B,Raw,
Nirmal Kumar Saha,India,M,1948,75,Masters 4,83,74.45,65,75,80,80,80,4,B,Raw,
Jiří Horník,Czechia,M,1948,75,Masters 4,105,93.55,-117.5,,,,,DQ,B,Raw,
Hans-Joachim Thuerk,Germany,M,1949,74,Masters 4,120,105.2,110,115,120,120,120,1,B,Raw,
Markku Kemppainen,Finland,M,1949,74,Masters 4,66,63.8,90,95,-97.5,95,95,1,B,Raw,
Kyoji Kawakami,Japan,M,1950,73,Masters 4,59,56.8,75,-80,80,80,80,1,B,Raw,
Kari Hollsten,Finland,M,1950,73,Masters 4,93,91.3,122.5,127.5,-132.5,127.5,127.5,2,B,Raw,
Perenlei Shagdar,Mongolia,M,1951,72,Masters 4,66,63.4,70,-80,-82.5,70,70,3,B,Raw,
Gerhard Baumeister,Germany,M,1952,71,Masters 4,83,82.45,-115,115,125,125,125,1,B,Raw,
Hideyuki Nobuhara,Japan,M,1952,71,Masters 4,74,73.7,130,135.5,137.5,137.5,137.5,1,B,Raw,
Susumu Watanabe,Japan,M,1953,70,Masters 4,74,73.1,125,130,-136,130,130,2,B,Raw,
Seppo Flink,Finland,M,1953,70,Masters 4,66,62.4,70,75,80,80,80,2,B,Raw,
Gary Reale,USA,M,1953,70,Masters 4,83,74.8,82.5,85,92.5,92.5,92.5,2,B,Raw,
Hans Thyssing,Denmark,M,1953,70,Masters 4,105,93.5,105,-112.5,-112.5,105,105,2,B,Raw,
Terry Young,Canada,M,1954,69,Masters 3,120+,144.2,132.5,-142.5,142.5,142.5,142.5,2,B,Raw,
Harald Paul,Germany,M,1954,69,Masters 3,120+,129.95,-137.5,137.5,-142.5,137.5,137.5,3,B,Raw,
Daniel Sides,USA,M,1956,67,Masters 3,74,71.45,120,-127.5,-127.5,120,120,5,B,Raw,
Stephen Vineburg,UK,M,1956,67,Masters 3,83,81.15,90,92.5,95,95,95,5,B,Raw,
Juha Koivisto,Finland,M,1956,67,Masters 3,93,91.85,140,145,147.5,147.5,147.5,2,B,Raw,
Stephen Flemming,Canada,M,1957,66,Masters 3,93,92.45,117.5,-122.5,,117.5,117.5,6,B,Raw,
Werner Wieninger,Germany,M,1957,66,Masters 3,120,117,167.5,175,177.5,177.5,177.5,2,B,Raw,
Daniel Royer,Canada,M,1957,66,Masters 3,105,97.05,92.5,-97.5,-97.5,92.5,92.5,8,B,Raw,
Dana Rosenzweig,USA,M,1957,66,Masters 3,93,92.3,120,125,132.5,132.5,132.5,4,B,Raw,
James Ray #1,USA,M,1957,66,Masters 3,120+,133.65,140,145,150,150,150,1,B,Raw,
Joachim Graupner,Germany,M,1958,65,Masters 3,83,80.25,130,140,145,145,145,2,B,Raw,
Franz Nerb,Germany,M,1959,64,Masters 3,93,91,162.5,167.5,172.5,172.5,172.5,1,B,Raw,
Kenneth Bennett,USA,M,1959,64,Masters 3,105,101.4,127.5,135,142.5,142.5,142.5,5,B,Raw,
Dorj Zundui,Mongolia,M,1960,63,Masters 3,83,82.5,-115,-122.5,-122.5,,,DQ,B,Raw,
Tomas Ring,Sweden,M,1960,63,Masters 3,83,82.75,132.5,137.5,147.5,147.5,147.5,1,B,Raw,
Thomas Cencich,USA,M,1960,63,Masters 3,93,90.75,-145,-145,145,145,145,3,B,Raw,
Abbas Pordel,Australia,M,1961,62,Masters 3,120,116.65,165,177.5,-180,177.5,177.5,1,B,Raw,
Friedhelm Schröter,Germany,M,1961,62,Masters 3,74,71.8,120,127.5,132.5,132.5,132.5,2,B,Raw,
Michael Rodriguez #13,USA,M,1961,62,Masters 3,74,72.85,125,132.5,-135,132.5,132.5,3,B,Raw,
Réjean Gauvreau,Canada,M,1962,61,Masters 3,74,71.95,125,-130,-132.5,125,125,4,B,Raw,
Andy Rigby,UK,M,1962,61,Masters 3,105,104.6,190,201.5,203.5,203.5,203.5,1,B,Raw,
John Allan Ralf,Canada,M,1962,61,Masters 3,105,103.15,157.5,-165,165,165,165,2,B,Raw,
Steve Edwards,USA,M,1962,61,Masters 3,66,64.7,90,95,102.5,102.5,102.5,1,B,Raw,
Stewart Cowan,UK,M,1963,60,Masters 3,105,104.65,147.5,152.5,157.5,157.5,157.5,3,B,Raw,
Uwe Hering,Germany,M,1963,60,Masters 3,105,93.75,140,150,155,155,155,4,B,Raw,
Georg Haug,Germany,M,1965,58,Masters 2,120+,152.4,175,-180,-182.5,175,175,4,B,Raw,
Stuart Peskett,UK,M,1966,57,Masters 2,83,81.5,130,132.5,-135,132.5,132.5,8,B,Raw,
Gary Lacoursiere,Canada,M,1967,56,Masters 2,74,73.5,130,135,-140,135,135,6,B,Raw,
Michael Wade,Canada,M,1967,56,Masters 2,105,99.6,140,152.5,-160,152.5,152.5,6,B,Raw,
Petri Rinkinen,Finland,M,1967,56,Masters 2,105,104.35,160,167.5,177.5,177.5,177.5,5,B,Raw,
Takuya Yamashita,Japan,M,1968,55,Masters 2,83,81,167.5,170,175,175,175,1,B,Raw,
Steve Petrencak,USA,M,1968,55,Masters 2,66,64.8,127.5,132.5,-135,132.5,132.5,2,B,Raw,
János Cserna,Hungary,M,1968,55,Masters 2,120+,120.35,185,190,192.5,192.5,192.5,1,B,Raw,
Jason Ross,USA,M,1969,54,Masters 2,83,81.95,145,155,-167.5,155,155,5,B,Raw,
Maik Staegemann,Germany,M,1969,54,Masters 2,66,64.85,127.5,132.5,-135,132.5,132.5,3,B,Raw,
Vesa Hartikainen,Finland,M,1969,54,Masters 2,83,82.65,150,155,-160,155,155,6,B,Raw,
Koji Yoshino,Japan,M,1969,54,Masters 2,59,58.5,115,117.5,122.5,122.5,122.5,1,B,Raw,
Tomohiro Sakai,Japan,M,1970,53,Masters 2,93,90.6,180,190,197.5,197.5,197.5,1,B,Raw,
Todd Solomon,USA,M,1970,53,Masters 2,66,64.9,107.5,110,-112.5,110,110,4,B,Raw,
Thomas Kraemer,Germany,M,1970,53,Masters 2,105,103.5,155,165,177.5,177.5,177.5,3,B,Raw,
Darren Ball,UK,M,1970,53,Masters 2,120,118.8,160,-167.5,170,170,170,3,B,Raw,
Teskhuu Ichinnorov,Mongolia,M,1971,52,Masters 2,105,103.7,177.5,-182.5,-182.5,177.5,177.5,4,B,Raw,
Sean Gaffney,UK,M,1971,52,Masters 2,120,117.17,150,165,-170,165,165,4,B,Raw,
Brian Colbourne,Canada,M,1971,52,Masters 2,83,80,125,135,-140,135,135,7,B,Raw,
Mitsuo Kametani,Japan,M,1971,52,Masters 2,66,65.8,145,-156,-156,145,145,1,B,Raw,
Toshiyuki Sato,Japan,M,1971,52,Masters 2,120+,127.2,170,180,-182.5,180,180,3,B,Raw,
Deepak Shreenath Sharma,India,M,1971,52,Masters 2,120+,131.1,80,87.5,95,95,95,7,B,Raw,
Chris Walter,USA,M,1971,52,Masters 2,105,98.35,182.5,190,200,200,200,1,B,Raw,
Christopher Dolk,Sweden,M,1972,51,Masters 2,74,72.65,120,132.5,137.5,137.5,137.5,4,B,Raw,
Amarsanaa Khuujii,Mongolia,M,1972,51,Masters 2,74,73.75,132.5,135,-140,135,135,7,B,Raw,
Uurtsaikh Bazarsuren,Mongolia,M,1973,50,Masters 2,120,119.55,180,-185,-185,180,180,2,B,Raw,
Shigeki Kushino,Japan,M,1973,50,Masters 2,83,82.95,170,-172.5,-172.5,170,170,2,B,Raw,
Tserensodnom Alyeksandr,Mongolia,M,1973,50,Masters 2,74,73.3,132.5,137.5,-140,137.5,137.5,5,B,Raw,
Jan Kluwe,Germany,M,1974,49,Masters 1,83,82.05,145,150,-155,150,150,5,B,Raw,
Scott Simon #1,UK,M,1974,49,Masters 1,120,114.95,195,205,-215,205,205,5,B,Raw,
Sven Mueller,Germany,M,1975,48,Masters 1,120+,128.25,205,212.5,220,220,220,2,B,Raw,
Ronny Reimling,Germany,M,1976,47,Masters 1,120,119.35,180,190,-195,190,190,7,B,Raw,
Anders Karlsson,Sweden,M,1977,46,Masters 1,120+,167.2,170,-177.5,-177.5,170,170,5,B,Raw,
Ville Vaivila,Finland,M,1977,46,Masters 1,74,68.05,100,,,100,100,5,B,Raw,
Kornél Schauer,Hungary,M,1977,46,Masters 1,120,118.15,215,222.5,-230,222.5,222.5,1,B,Raw,
Sean Vandenburg,Canada,M,1977,46,Masters 1,66,62.55,100,105,-112.5,105,105,5,B,Raw,
Gantugs Ganjuur,Mongolia,M,1978,45,Masters 1,83,81.75,165,167.5,-170,167.5,167.5,2,B,Raw,
Nezar Ballil,Morocco,M,1978,45,Masters 1,105,101.4,187.5,190,-195,190,190,3,B,Raw,
Lóránd Berke,Hungary,M,1979,44,Masters 1,93,92.45,167.5,172.5,175,175,175,4,B,Raw,
Jani Haapamäki,Finland,M,1979,44,Masters 1,74,73.55,160,170,-177.5,170,170,1,B,Raw,
Daiki Kodama,Japan,M,1979,44,Masters 1,83,82.45,210,220.5,230.5,230.5,230.5,1,B,Raw,
Shinichiro Takahashi,Japan,M,1979,44,Masters 1,93,90.8,195,200,205,205,205,1,B,Raw,
Rajbir Rajbir,India,M,1979,44,Masters 1,93,91.45,-165,172.5,175,175,175,3,B,Raw,
Stefan Mohr,Germany,M,1980,43,Masters 1,59,57.6,95,97.5,-100,97.5,97.5,2,B,Raw,
Motohiro Mizoo,Japan,M,1980,43,Masters 1,59,58.25,120,130,135,135,135,1,B,Raw,
Ryan Dixon,UK,M,1980,43,Masters 1,120,115.05,170,180,182.5,182.5,182.5,8,B,Raw,
Ben Richens,UK,M,1981,42,Masters 1,83,82,130,132.5,135,135,135,7,B,Raw,
Levani Giligashvili,Georgia,M,1982,41,Masters 1,74,73.35,165,170,-172.5,170,170,2,B,Raw,
Enkhnasan Purevjav,Mongolia,M,1982,41,Masters 1,105,100.8,185,-192.5,-192.5,185,185,4,B,Raw,
Jonathan Losa,USA,M,1982,41,Masters 1,83,82.35,185,192.5,201,201,201,1,B,Raw,
Tommy Påhls,Sweden,M,1982,41,Masters 1,120,117.75,225,230,-235,230,230,4,B,Raw,
Munkhbayar Erdenechuluun,Mongolia,M,1983,40,Masters 1,120,116.75,195,205,-215,205,205,6,B,Raw,
Hasan Almasri,Syria,M,1983,40,Masters 1,120,114.55,-210,210,-222.5,210,210,3,B,Raw,
Yuji Takahashi,Japan,M,1983,40,Masters 1,66,65.65,150,157.5,-171,157.5,157.5,1,B,Raw,
Andrew Davey,UK,M,1983,40,Masters 1,105,103.5,175,180,182.5,182.5,182.5,5,B,Raw,
Masashi Fukuda,Japan,M,1984,39,Open,66,65.75,-140,-140,140,140,140,3,B,Raw,
Yuji Fujita,Japan,M,1984,39,Open,59,58.3,142.5,145,-150,145,145,3,B,Raw,
Kim Beck-Gundersen,Norway,M,1985,38,Open,93,91.3,195,205,-210,205,205,4,B,Raw,
Ross Shahin-Ajerlo,UK,M,1985,38,Open,120+,129.4,187.5,200,205,205,205,7,B,Raw,
Tsotne Bezhashvili,Georgia,M,1985,38,Open,66,65.9,180,-187.5,-187.5,180,180,1,B,Raw,
Orgilbold Galdan,Mongolia,M,1986,37,Open,93,89,210,222.5,227.5,227.5,227.5,1,B,Raw,
Håkan Reher,Sweden,M,1987,36,Open,83,82.45,192.5,197.5,-202.5,197.5,197.5,4,B,Raw,
Michael Jurgen Herrmann,Denmark,M,1988,35,Open,93,92.3,175,-185,185,185,185,6,B,Raw,
Andrew Ward #1,UK,M,1988,35,Open,74,73.8,155,167.5,-170,167.5,167.5,3,B,Raw,
Shane Martin,Canada,M,1988,35,Open,120+,130.25,230,240,250,250,250,2,B,Raw,
Ryohei Kume,Japan,M,1988,35,Open,59,58.65,155,162.5,-165,162.5,162.5,1,B,Raw,
Mads Pedersen,Denmark,M,1989,34,Open,83,82.6,172.5,182.5,192.5,192.5,192.5,6,B,Raw,
Michael Elouaflin,Ivory Coast,M,1989,34,Open,59,58.5,135,137.5,-147.5,137.5,137.5,4,B,Raw,
Davit Gabelaia,Georgia,M,1989,34,Open,93,92.2,205,-210,-210,205,205,5,B,Raw,
Andrew Caltabiano,Australia,M,1989,34,Open,120,118.75,225,230,235,235,235,3,B,Raw,
Benjamin Haugk,Germany,M,1990,33,Open,83,82.25,157.5,165,170,170,170,10,B,Raw,
Fredrik Eskil Myrvang,Norway,M,1990,33,Open,59,58.05,157.5,-162.5,-162.5,157.5,157.5,2,B,Raw,
Ganbold Gerelbadrakh,Mongolia,M,1990,33,Open,83,80.7,190,195,-202.5,195,195,5,B,Raw,
Levani Mtiulishvili,Georgia,M,1990,33,Open,105,102.7,215,222.5,-230,222.5,222.5,4,B,Raw,
Franck Patrick Niagne,Ivory Coast,M,1991,32,Open,105,101.8,205,215,-225,215,215,5,B,Raw,
Kaden Hush,USA,M,1991,32,Open,120,113.3,227.5,232.5,237.5,237.5,237.5,1,B,Raw,
Naoki Hasegawa,Japan,M,1992,31,Open,105,101.9,217.5,225,-230,225,225,3,B,Raw,
Joni Tajakka,Finland,M,1992,31,Open,105,104.6,-225,-227.5,-232.5,,,DQ,B,Raw,
Josef Eriksson,Sweden,M,1992,31,Open,105,98.65,217.5,225,-230,225,225,2,B,Raw,
Yosuke Horiguchi,Japan,M,1993,30,Open,93,86.4,150,165,175,175,175,7,B,Raw,
Gabriel Begue,France,M,1993,30,Open,93,91.1,197.5,205,-210,205,205,3,B,Raw,
Juergen Kraushofer,Austria,M,1993,30,Open,83,82.3,200,-207.5,207.5,207.5,207.5,2,B,Raw,
Ashley Watson #2,UK,M,1993,30,Open,105,104.4,187.5,195,197.5,197.5,197.5,7,B,Raw,
Jaideep Wasu,UK,M,1994,29,Open,83,81.2,155,162.5,165,165,165,11,B,Raw,
Ben Gibson #1,UK,M,1997,26,Open,120+,170.3,205,212.5,220,220,220,5,B,Raw,
Seth Howard,USA,M,1997,26,Open,74,72.7,145,150,-157.5,150,150,5,B,Raw,
Tommy Teheura,France,M,1997,26,Open,120+,140.75,240,-250,-250,240,240,3,B,Raw,
Marek Novák,Czechia,M,1997,26,Open,120+,168.05,250,260,-265,260,260,1,B,Raw,
Tobias Wollny,Germany,M,2000,23,Juniors,83,82,135,-145,145,145,145,5,B,Raw,
Clément Gomez,France,M,2000,23,Juniors,105,103.85,182.5,190,-200,190,190,5,B,Raw,
Leunard Gervalla,Canada,M,2000,23,Juniors,120,115.65,230,235,241.5,241.5,241.5,1,B,Raw,
Mahiro Goto,Japan,M,2000,23,Juniors,59,58.9,145,150,-152.5,150,150,2,B,Raw,
Tserenbat Chuluunbat,Mongolia,M,2000,23,Juniors,74,73.6,150,155,157.5,157.5,157.5,2,B,Raw,
Colton Patrick,USA,M,2000,23,Juniors,83,81,137.5,-147.5,-147.5,137.5,137.5,6,B,Raw,
Daan Wesdorp,Netherlands,M,2000,23,Juniors,120,107.5,185,-190,192.5,192.5,192.5,4,B,Raw,
Ammar Nassier,UK,M,2000,23,Juniors,74,73.9,147.5,152.5,-157.5,152.5,152.5,3,B,Raw,
Yulong Li #1,Sweden,M,2000,23,Juniors,93,91.6,185,192.5,-197.5,192.5,192.5,2,B,Raw,
Maxim Uebel,Sweden,M,2000,23,Juniors,105,101.9,190,197.5,-202.5,197.5,197.5,3,B,Raw,
Natan Balogh,Hungary,M,2000,23,Juniors,74,73.75,-165,-165,-165,,,DQ,B,Raw,
Tomoharu Ohira,Japan,M,2000,23,Juniors,66,63.15,145,152.5,-170,152.5,152.5,1,B,Raw,
Martin Nguyen #3,UK,M,2001,22,Juniors,66,65.15,142.5,150,-157.5,150,150,3,B,Raw,
Tom Field,UK,M,2001,22,Juniors,83,81.8,165,177.5,-180,177.5,177.5,3,B,Raw,
Antony Weston,UK,M,2001,22,Juniors,120+,127.7,180,185,192.5,192.5,192.5,1,B,Raw,
Jonathan Henningsson,Sweden,M,2001,22,Juniors,83,82.75,200,208,210.5,210.5,210.5,1,B,Raw,
John Tyler #1,USA,M,2001,22,Juniors,93,89.95,180,-185,187.5,187.5,187.5,3,B,Raw,
Koyo Komine,Japan,M,2001,22,Juniors,93,83.6,-150,150,-172.5,150,150,8,B,Raw,
Tornike Paatashvili,Georgia,M,2001,22,Juniors,105,103.6,-195,200,-207.5,200,200,2,B,Raw,
Henning Daniel,Germany,M,2002,21,Juniors,83,79.15,120,130,-137.5,130,130,8,B,Raw,
Noah Mayer,Germany,M,2002,21,Juniors,74,73.8,137.5,142.5,-150,142.5,142.5,4,B,Raw,
Singh Tarandeep,India,M,2002,21,Juniors,93,88.3,-170,-170,-170,,,DQ,B,Raw,
Axel Samuelsson,Sweden,M,2002,21,Juniors,93,88.15,190,195,-205,195,195,1,B,Raw,
Simoni Orbelashvili,Georgia,M,2002,21,Juniors,66,65,140,150,-157.5,150,150,2,B,Raw,
Isak Asperud,Norway,M,2002,21,Juniors,93,91.5,160,170,180,180,180,5,B,Raw,
Takahiro Ito,Japan,M,2002,21,Juniors,83,80.1,165,-175,-180,165,165,4,B,Raw,
Dario Merbeler,Germany,M,2003,20,Juniors,120,117.5,160,170,180,180,180,5,B,Raw,
Jaba Sepiashvili,Georgia,M,2003,20,Juniors,59,57.9,140,145,150,150,150,1,B,Raw,
Emil Lundgren,Sweden,M,2003,20,Juniors,74,73.55,182.5,190,-200.5,190,190,1,B,Raw,
Brady Graceffa,USA,M,2003,20,Juniors,74,73.55,117.5,-130,130,130,130,5,B,Raw,
Muhammad Haider,Canada,M,2003,20,Juniors,120+,135.1,175,185,-195,185,185,3,B,Raw,
Olivér Susa,Hungary,M,2004,19,Juniors,105,100.4,190,200,207.5,207.5,207.5,1,B,Raw,
Marcus Thornton,UK,M,2004,19,Juniors,120+,122.5,177.5,185,-192.5,185,185,2,B,Raw,
Max Wadsworth,UK,M,2004,19,Juniors,93,90.2,175,182.5,-185,182.5,182.5,4,B,Raw,
Sven Sester,Germany,M,2005,18,Sub-Juniors,83,81.6,125,-132.5,-132.5,125,125,2,B,Raw,
Chakravarti Monish,India,M,2005,18,Sub-Juniors,120,113.05,95,110,-122.5,110,110,2,B,Raw,
Mitchell Guppy,UK,M,2005,18,Sub-Juniors,93,91.7,132.5,137.5,142.5,142.5,142.5,2,B,Raw,
Romain Pipart,France,M,2005,18,Sub-Juniors,66,65.95,120,127.5,130,130,130,1,B,Raw,
Brandon Lee #10,UK,M,2005,18,Sub-Juniors,120,119.05,145,150,152.5,152.5,152.5,1,B,Raw,
James Kellerman,USA,M,2005,18,Sub-Juniors,105,102.35,160,170,175,175,175,1,B,Raw,
Noah Williams #1,UK,M,2005,18,Sub-Juniors,59,58.1,77.5,82.5,-87.5,82.5,82.5,1,B,Raw,
Thomas Billoir,France,M,2006,17,Sub-Juniors,74,72.15,132.5,140,145,145,145,1,B,Raw,
Zachary Vandenburg,Canada,M,2007,16,Sub-Juniors,53,50.7,67.5,72.5,-77.5,72.5,72.5,2,B,Raw,
Dan Oppenheim,South Africa,M,1945,78,Masters 4,83,75.25,75,80,85,85,85,3,B,Raw,
Boumedienne Bensalah,France,M,1953,70,Masters 4,105,102.2,125,-130,-135,125,125,1,B,Raw,
Pierre Courtehoux,France,M,1953,70,Masters 4,93,92.35,135,141,145,145,145,1,B,Raw,
Voitto Ahopelto,Finland,M,1956,67,Masters 3,83,82.85,95,100,-105,100,100,4,B,Raw,
Gilles Porcherel,France,M,1957,66,Masters 3,83,81.45,120,125,127.5,127.5,127.5,3,B,Raw,
Bayar Purev,Mongolia,M,1958,65,Masters 3,74,72.45,100,110,-115,110,110,7,B,Raw,
Gilles Mandrick,France,M,1959,64,Masters 3,93,90.3,130,-137.5,-137.5,130,130,5,B,Raw,
Glen Thomas,South Africa,M,1960,63,Masters 3,105,99.9,132.5,137.5,-140,137.5,137.5,6,B,Raw,
Tor Østhagen,Norway,M,1960,63,Masters 3,66,64.95,85,90,95,95,95,2,B,Raw,
Andrii Bozhyk,Ukraine,M,1962,61,Masters 3,105,98.15,117.5,122.5,125,125,125,7,B,Raw,
Per Øivind Fjeld,Norway,M,1963,60,Masters 3,120,116.8,170,-177.5,-182.5,170,170,3,B,Raw,
Ismo Hietanen,Finland,M,1963,60,Masters 3,74,72.95,110,115,117.5,117.5,117.5,6,B,Raw,
JC Bruce,South Africa,M,1963,60,Masters 3,66,65.3,80,-82.5,-82.5,80,80,3,B,Raw,
Tommie de Nysschen,South Africa,M,1963,60,Masters 3,74,73.65,125,132.5,135,135,135,1,B,Raw,
Denis Bensch,South Africa,M,1965,58,Masters 2,120+,122.85,135,145,-150,145,145,6,B,Raw,
Hervé France,France,M,1966,57,Masters 2,93,92.6,182.5,187.5,-197.5,187.5,187.5,2,B,Raw,
Ian Furman,South Africa,M,1967,56,Masters 2,120,119.95,165,172.5,182.5,182.5,182.5,1,B,Raw,
Robin van der Mee,Netherlands,M,1967,56,Masters 2,93,92.05,165,170,175,175,175,3,B,Raw,
Robert Truchon,Canada,M,1968,55,Masters 2,93,90.55,100,105,112.5,112.5,112.5,4,B,Raw,
Gilles Augier,France,M,1968,55,Masters 2,83,81.8,162.5,165,-175,165,165,4,B,Raw,
Gilles Marigo,France,M,1968,55,Masters 2,59,57.95,112.5,117.5,120,120,120,2,B,Raw,
John Crain,South Africa,M,1969,54,Masters 2,120+,121.2,165,170,-180,170,170,5,B,Raw,
Bruno Le Gargasson,France,M,1970,53,Masters 2,66,65.35,97.5,100,105,105,105,5,B,Raw,
Hermanus de Beer,South Africa,M,1970,53,Masters 2,120,113.6,135,140,150,150,150,5,B,Raw,
Charles Johnny Johnson,South Africa,M,1970,53,Masters 2,105,101.6,165,175,182.5,182.5,182.5,2,B,Raw,
Mickaäl Lager,France,M,1971,52,Masters 2,74,73.4,155,162.5,-170,162.5,162.5,1,B,Raw,
Ove Henning Lorentzen,Norway,M,1971,52,Masters 2,83,81.05,157.5,167.5,-172.5,167.5,167.5,3,B,Raw,
Vincent Eldin,France,M,1972,51,Masters 2,74,73.4,130,135,140,140,140,3,B,Raw,
Kaj Wasenius,Finland,M,1972,51,Masters 2,105,103.2,125,132.5,-140,132.5,132.5,7,B,Raw,
Cyril Pinguet,France,M,1972,51,Masters 2,83,82.4,-152.5,-162.5,-162.5,,,DQ,B,Raw,
Ari Flinkman,Finland,M,1972,51,Masters 2,120+,162.85,185,-190,-195,185,185,2,B,Raw,
Bartosz Żelazko,Poland,M,1973,50,Masters 2,74,73.8,142.5,145,,145,145,2,B,Raw,
Arkadiusz Wloch,Poland,M,1975,48,Masters 1,74,73.8,130,132.5,140,140,140,4,B,Raw,
Jussi Kuusikko,Finland,M,1975,48,Masters 1,105,103.75,-195,195,200,200,200,2,B,Raw,
Sławomir Śledź,Poland,M,1976,47,Masters 1,66,64.65,145,150,-157.5,150,150,2,B,Raw,
Simon Breetzke,South Africa,M,1978,45,Masters 1,120+,143.1,185,195,200,200,200,4,B,Raw,
Philippe Billoir,France,M,1978,45,Masters 1,120,119.65,200,207.5,-210,207.5,207.5,4,B,Raw,
Artak Asrian,Netherlands,M,1979,44,Masters 1,83,81.4,135,140,142.5,142.5,142.5,6,B,Raw,
Steven Coleman,South Africa,M,1979,44,Masters 1,66,65.65,-115,115,120,120,120,4,B,Raw,
Mariusz Marciniak,Poland,M,1980,43,Masters 1,93,92.15,180,182.5,190,190,190,2,B,Raw,
Amir Reza Mesforoosh,Iran,M,1980,43,Masters 1,66,65.75,125,127.5,-132.5,127.5,127.5,3,B,Raw,
Phillip Wilkins,US Virgin Islands,M,1980,43,Masters 1,105,101.95,225,232.5,-238.5,232.5,232.5,1,B,Raw,
Ricardo Fitzpatrick,South Africa,M,1980,43,Masters 1,83,81.07,-150,-150,-150,,,DQ,B,Raw,
Marco Antonio Silva Junior,Brazil,M,1981,42,Masters 1,105,101.3,170,177.5,-187.5,177.5,177.5,6,B,Raw,
Newton Mudau,South Africa,M,1981,42,Masters 1,120,119.5,175,180,-187.5,180,180,9,B,Raw,
Tario Teraiharoa,France,M,1981,42,Masters 1,120+,182.55,220,-235,-235,220,220,3,B,Raw,
Johann Meyer,South Africa,M,1981,42,Masters 1,83,78.45,120,-130,-130,120,120,8,B,Raw,
Ben Olenius,Finland,M,1981,42,Masters 1,120,119.45,205,-215,217.5,217.5,217.5,2,B,Raw,
David Jacobsz,South Africa,M,1981,42,Masters 1,93,91.75,155,-167.5,-167.5,155,155,5,B,Raw,
Craig Masson,South Africa,M,1981,42,Masters 1,105,104.65,165,-177.5,-177.5,165,165,7,B,Raw,
Gregory Young,Canada,M,1982,41,Masters 1,120+,159.75,235,240,245,245,245,1,B,Raw,
Batsaikhan Baljinnyam,Mongolia,M,1982,41,Masters 1,74,72.2,140,145,147.5,147.5,147.5,2,B,Raw,
Juha Aalto,Finland,M,1982,41,Masters 1,83,82.25,155,165,-170,165,165,3,B,Raw,
Geza Kubatov,Hungary,M,1983,40,Masters 1,105,101.5,215,222.5,227.5,227.5,227.5,1,B,Raw,
William van der Struis,Netherlands,M,1983,40,Masters 1,83,81.65,157.5,162.5,-167.5,162.5,162.5,4,B,Raw,
Simo Sistonen,Finland,M,1983,40,Masters 1,120,119.2,227.5,232.5,237.5,237.5,237.5,2,B,Raw,
Jonathan Kariv,South Africa,M,1983,40,Masters 1,74,73.65,130,135,140,140,140,3,B,Raw,
Chadwyn Govington,South Africa,M,1985,38,Open,74,73.95,147.5,157.5,-170,157.5,157.5,4,B,Raw,
Ivan Chuprinko,Ukraine,M,1986,37,Open,74,73.65,210,-225.5,,210,210,1,B,Raw,
Robin Wijs,Netherlands,M,1986,37,Open,105,97.1,180,190,-195,190,190,8,B,Raw,
Genadi Otiashvili,Georgia,M,1987,36,Open,83,80.7,185,190,-197.5,190,190,7,B,Raw,
Jeffrey Hasselt,Netherlands,M,1987,36,Open,83,81.6,180,190,197.5,197.5,197.5,3,B,Raw,
Fongang Techap,Cameroon,M,1989,34,Open,74,73.55,-150,-150,150,150,150,6,B,Raw,
Thomas Maik Schoeneck,Germany,M,1990,33,Open,120+,135.6,-230,237.5,-240,237.5,237.5,4,B,Raw,
Philipp Ziemer,Germany,M,1990,33,Open,66,65.85,130,-132.5,-142.5,130,130,4,B,Raw,
Richard Kerr-Phillips,New Zealand,M,1990,33,Open,83,81.45,157.5,167.5,170,170,170,9,B,Raw,
Nazariy Dyachuk,Ukraine,M,1991,32,Open,120,111.8,220,-227.5,-230,220,220,5,B,Raw,
Steven Routledge,South Africa,M,1991,32,Open,66,64.65,115,120,122.5,122.5,122.5,5,B,Raw,
Tom Wewege,South Africa,M,1992,31,Open,105,104.45,190,-200,202.5,202.5,202.5,6,B,Raw,
Ano Naoussi Nembot,Cameroon,M,1992,31,Open,120,115.1,150,-175,-175,150,150,6,B,Raw,
Stefan Schroder,South Africa,M,1992,31,Open,120+,151.3,205,217.5,-222.5,217.5,217.5,6,B,Raw,
Tatsuya Kawashima,Japan,M,1993,30,Open,66,65.75,175,-185,-185,175,175,2,B,Raw,
Simbayi Bvumburai,Zimbabwe,M,1994,29,Open,105,103.4,140,-150,-150,140,140,9,B,Raw,
Bohdan Bon,Ukraine,M,1995,28,Open,93,92.05,210,222.5,-227.5,222.5,222.5,2,B,Raw,
Gabriel Schmidt,Brazil,M,1997,26,Open,93,92.7,-157.5,157.5,-162.5,157.5,157.5,8,B,Raw,
Marco Lee,Netherlands,M,1998,25,Open,83,82.25,170,175,180,180,180,8,B,Raw,
Simen Johnson Myrvold,Norway,M,2000,23,Juniors,83,82.55,-180,190,-208.5,190,190,2,B,Raw,
Wouter Klaver,Netherlands,M,2000,23,Juniors,120,114,187.5,192.5,195,195,195,3,B,Raw,
Oskar Lindmark Sahlgren,Sweden,M,2000,23,Juniors,105,103.2,-190,192.5,-202.5,192.5,192.5,4,B,Raw,
Erlend Kristensen,Norway,M,2000,23,Juniors,93,91.95,165,175,-180,175,175,6,B,Raw,
Kristian Eek Haugen,Norway,M,2001,22,Juniors,120,117.3,197.5,212.5,222.5,222.5,222.5,2,B,Raw,
Bryce Sillitoe,South Africa,M,2001,22,Juniors,120+,140.85,85,92.5,100,100,100,1,B,Raw,
Jesse van Mourik,Netherlands,M,2002,21,Juniors,93,91.1,172.5,-177.5,-177.5,172.5,172.5,7,B,Raw,
Kemal Ergin,Netherlands,M,2002,21,Juniors,59,58.7,115,120,-127.5,120,120,3,B,Raw,
Eilim Avishai,South Africa,M,2004,19,Juniors,83,78.05,130,135,-140,135,135,7,B,Raw,
Mikołaj Zając,Poland,M,2005,18,Sub-Juniors,105,94.95,122.5,130,-140,130,130,3,B,Raw,
Rehak Martin,Czechia,M,2005,18,Sub-Juniors,74,72.2,-135,135,-142.5,135,135,2,B,Raw,
Pelkonen Oliver,Finland,M,2005,18,Sub-Juniors,93,90.35,145,150,155,155,155,1,B,Raw,
Stephane Jobin Omoloma,Cameroon,M,2005,18,Sub-Juniors,83,77.5,70,80,-85,80,80,3,B,Raw,
Pawel Wloch,Poland,M,2006,17,Sub-Juniors,83,76.95,120,130,-132.5,130,130,1,B,Raw,
Richard Steenekamp,South Africa,M,2006,17,Sub-Juniors,105,101.25,-125,125,137.5,137.5,137.5,2,B,Raw,
Samuel Meshilinie,South Africa,M,2006,17,Sub-Juniors,53,51.45,70,75,77.5,77.5,77.5,1,B,Raw,
Noriko Iida,Japan,F,1936,87,Masters 4,52,50,47.5,-50,50,50,50,1,B,Raw,
Françoise Heligon,France,F,1943,80,Masters 4,57,53.7,40,-42.5,42.5,42.5,42.5,1,B,Raw,
Judith McGauley,UK,F,1948,75,Masters 4,52,49.35,30,32.5,-35,32.5,32.5,2,B,Raw,
Chizuko Hoshita,Japan,F,1953,70,Masters 4,63,63,62.5,-65,-65,62.5,62.5,1,B,Raw,
Eva Speth,Germany,F,1954,69,Masters 3,84+,94.35,75,80,85,85,85,1,B,Raw,
Evelyne Herbin,France,F,1956,67,Masters 3,69,63.15,60,65,-67.5,65,65,2,B,Raw,
Janice Hawes,UK,F,1957,66,Masters 3,76,73.05,47.5,50,57.5,57.5,57.5,2,B,Raw,
Socorro Perez,Mexico,F,1959,64,Masters 3,63,60.6,65,70,-75,70,70,1,B,Raw,
Janine Wheeler,Canada,F,1960,63,Masters 3,76,74.65,50,52.5,55,55,55,3,B,Raw,
Brigitte Landon,France,F,1961,62,Masters 3,52,49.05,55,57.5,-60,57.5,57.5,1,B,Raw,
Patricia Maciejewski,France,F,1961,62,Masters 3,69,68.4,77.5,83,-85,83,83,1,B,Raw,
Kerstin Klawitter-Thomsen,Germany,F,1962,61,Masters 3,84,82.8,55,60,62.5,62.5,62.5,1,B,Raw,
Regina Haas,Germany,F,1962,61,Masters 3,76,73.75,90,93.5,95.5,95.5,95.5,1,B,Raw,
Delwyn Evans,New Zealand,F,1964,59,Masters 2,76,73.75,70,72.5,-75,72.5,72.5,2,B,Raw,
Maureen Gordon,UK,F,1964,59,Masters 2,69,67.35,70,75,-80,75,75,3,B,Raw,
Joanne Holden,UK,F,1966,57,Masters 2,57,55.8,40,42.5,45,45,45,4,B,Raw,
Marie-France Cabos,France,F,1967,56,Masters 2,57,55.45,70,72.5,-77.5,72.5,72.5,3,B,Raw,
Florence Leccese,France,F,1969,54,Masters 2,69,65.3,72.5,75,77.5,77.5,77.5,2,B,Raw,
Anita Traasdahl,Norway,F,1969,54,Masters 2,57,56,72.5,75,-80,75,75,2,B,Raw,
Gail Mathewson,South Africa,F,1969,54,Masters 2,76,74.6,60,65,67.5,67.5,67.5,3,B,Raw,
Elaine Jackson #2,UK,F,1969,54,Masters 2,84+,113.85,77.5,-82.5,82.5,82.5,82.5,3,B,Raw,
Eva-Maria Gall,Germany,F,1970,53,Masters 2,84+,108.45,100,105,110,110,110,1,B,Raw,
Mikako Fujiyama,Japan,F,1970,53,Masters 2,52,50,50,57.5,60,60,60,2,B,Raw,
Rachel Spragg,UK,F,1970,53,Masters 2,63,62.35,60,62.5,65,65,65,2,B,Raw,
Géraldine Verlaine,France,F,1970,53,Masters 2,52,51.35,67.5,-70,-70,67.5,67.5,1,B,Raw,
Lincoln Rose,UK,F,1970,53,Masters 2,69,68.7,80,85,87.5,87.5,87.5,1,B,Raw,
Sanna Oksanen,Finland,F,1971,52,Masters 2,63,62.1,67.5,70,75,75,75,1,B,Raw,
Angel Yau-Vandenburg,Canada,F,1972,51,Masters 2,52,47.9,45,47.5,-50,47.5,47.5,3,B,Raw,
Joanne Laird,UK,F,1972,51,Masters 2,84+,130.25,92.5,95,97.5,97.5,97.5,2,B,Raw,
Harmath Monika,Hungary,F,1973,50,Masters 2,84,83.55,-70,-70,-70,,,DQ,B,Raw,
Sachiko Iwamoto,Japan,F,1973,50,Masters 2,57,54.1,92.5,103,105,105,105,1,B,Raw,
Karen McKendry,UK,F,1973,50,Masters 2,84,78.8,-70,70,72.5,72.5,72.5,1,B,Raw,
Ielja Strik,Netherlands,F,1973,50,Masters 2,84,83.15,125,127.5,132.5,132.5,132.5,1,B,Raw,
Tiina Voho,Finland,F,1973,50,Masters 2,76,75.25,100,108.5,-110,108.5,108.5,1,B,Raw,
Erika Salamon,Hungary,F,1973,50,Masters 2,57,56.2,92.5,97.5,100,100,100,1,B,Raw,
Emma Stott,UK,F,1974,49,Masters 1,57,56.35,57.5,62.5,65,65,65,3,B,Raw,
Jodi Poxon,South Africa,F,1975,48,Masters 1,76,75.6,62.5,65,67.5,67.5,67.5,4,B,Raw,
Natasja Martis,Netherlands,F,1975,48,Masters 1,63,61.8,87.5,92.5,-97.5,92.5,92.5,2,B,Raw,
Petra Höglund,Sweden,F,1975,48,Masters 1,84,76.55,85,90,95,95,95,2,B,Raw,
Joanne Parkin,UK,F,1975,48,Masters 1,84+,120.5,92.5,97.5,-105,97.5,97.5,3,B,Raw,
Mélisa Meunier,France,F,1975,48,Masters 1,63,59.5,70,72.5,-75,72.5,72.5,4,B,Raw,
Pauliina Suomela,Finland,F,1976,47,Masters 1,69,67.5,90,95,-100,95,95,1,B,Raw,
Amy Suzan,US Virgin Islands,F,1976,47,Masters 1,69,66.9,70,77.5,-85,77.5,77.5,2,B,Raw,
Yumiko Ito,Japan,F,1976,47,Masters 1,63,61.95,70,75,-77.5,75,75,3,B,Raw,
Akiko Nishikawa,Japan,F,1976,47,Masters 1,52,51.6,-80,-80,-80,,,DQ,B,Raw,
Iolanda Costa Zolyome,Brazil,F,1977,46,Masters 1,76,74.8,110,-115,115,115,115,1,B,Raw,
Sima Dutt Chatterjee,India,F,1977,46,Masters 1,69,68.55,50,60,-65,60,60,3,B,Raw,
Patil Nilima,India,F,1978,45,Masters 1,57,52.7,52.5,55,-62.5,55,55,4,B,Raw,
Daniälle Arts,Netherlands,F,1979,44,Masters 1,84,81.45,95,100,102.5,102.5,102.5,1,B,Raw,
Lene Alexandra Øien,Norway,F,1981,42,Masters 1,57,55.95,-67.5,67.5,-75,67.5,67.5,2,B,Raw,
Sarah Wages,USA,F,1981,42,Masters 1,84+,129.65,95,100,-115,100,100,2,B,Raw,
Niina Köninki,Finland,F,1981,42,Masters 1,63,61.7,90,92.5,-97.5,92.5,92.5,1,B,Raw,
Sandra Jakobsson,Sweden,F,1981,42,Masters 1,76,72.65,82.5,87.5,90,90,90,3,B,Raw,
Pamela Hodder,Canada,F,1981,42,Masters 1,84,79.2,-95,95,-97.5,95,95,3,B,Raw,
Sorah Garber,South Africa,F,1981,42,Masters 1,63,60.6,77.5,82.5,85,85,85,4,B,Raw,
Antje Decker,Germany,F,1982,41,Masters 1,84,83.2,95,-97.5,-97.5,95,95,4,B,Raw,
Stéphanie Alberti,France,F,1983,40,Masters 1,76,75.15,112.5,115,-117.5,115,115,2,B,Raw,
Kate Clarke,UK,F,1983,40,Masters 1,52,51.55,60,62.5,65,65,65,1,B,Raw,
Hildeborg Juvet Hugdal,Norway,F,1983,40,Masters 1,84+,122.2,132.5,137.5,-140,137.5,137.5,4,B,Raw,
Jessica Reyes,Mexico,F,1983,40,Masters 1,57,55.1,70,72.5,77.5,77.5,77.5,1,B,Raw,
Kristl Kannemeyer,South Africa,F,1983,40,Masters 1,63,62.3,72.5,-77.5,-77.5,72.5,72.5,5,B,Raw,
Rebecca Coggle,UK,F,1983,40,Masters 1,84+,143.35,110,115,122.5,122.5,122.5,1,B,Raw,
Maria Frank,Canada,F,1984,39,Open,57,55.8,85,92.5,-97.5,92.5,92.5,5,B,Raw,
Johanna Laitinen,Finland,F,1986,37,Open,84+,109.25,-132.5,-132.5,137.5,137.5,137.5,3,B,Raw,
Ankie Timmers,Netherlands,F,1986,37,Open,84,82.8,117.5,120,122.5,122.5,122.5,3,B,Raw,
Ágnes Szabó,Hungary,F,1988,35,Open,84+,112.35,140,145,-150,145,145,2,B,Raw,
Namiko Sakata,Japan,F,1988,35,Open,63,62.15,70,77.5,82.5,82.5,82.5,5,B,Raw,
Johanna Forsström,Finland,F,1988,35,Open,57,54.4,-92.5,92.5,-97.5,92.5,92.5,4,B,Raw,
Laura Brewer,South Africa,F,1988,35,Open,69,66.75,70,-77.5,-82.5,70,70,5,B,Raw,
Annika Zelander,Sweden,F,1988,35,Open,76,75.7,125,132.5,137.5,137.5,137.5,1,B,Raw,
Lauren Norton,South Africa,F,1989,34,Open,84+,111.35,100,107.5,112.5,112.5,112.5,6,B,Raw,
Maj B Rames,Denmark,F,1989,34,Open,63,62.4,102.5,-107.5,107.5,107.5,107.5,3,B,Raw,
Maria Kojoukhova,Finland,F,1989,34,Open,52,50.9,77.5,80,-85,80,80,4,B,Raw,
Sakar Hamawandi,Norway,F,1990,33,Open,47,46.8,-75,-75,-75,,,DQ,B,Raw,
Samantha Fung,Canada,F,1990,33,Open,69,67.9,85,90,-92.5,90,90,4,B,Raw,
Micaela Ödling,Sweden,F,1990,33,Open,84,76.25,-107.5,107.5,-120,107.5,107.5,4,B,Raw,
Maria Karjalainen,Finland,F,1990,33,Open,57,55.55,85,90,-95,90,90,6,B,Raw,
Victoria Cavalier-Hirth,UK,F,1991,32,Open,84+,136.65,110,115,120,120,120,5,B,Raw,
Matilda Hjälle,Sweden,F,1991,32,Open,84+,105.3,140,145,150,150,150,1,B,Raw,
Bouba Salamatou,Cameroon,F,1991,32,Open,69,65.9,-120,-120,-120,,,DQ,B,Raw,
Mtvarisa Khardziani,Georgia,F,1992,31,Open,47,46.8,55,62.5,-75,62.5,62.5,2,B,Raw,
Amber Russell,New Zealand,F,1993,30,Open,84,83.45,122.5,127.5,-130,127.5,127.5,2,B,Raw,
Elise Rosenborg,Norway,F,1993,30,Open,63,61.45,100,105,107.5,107.5,107.5,2,B,Raw,
Isabel Wagner,Germany,F,1994,29,Open,52,51.2,67.5,70,-72.5,70,70,5,B,Raw,
Charlotte MacPherson,UK,F,1995,28,Open,69,66.95,90,-95,95,95,95,3,B,Raw,
Lorraine Balbiani,France,F,1995,28,Open,52,51.85,95,100,-105,100,100,1,B,Raw,
Lucy Robinson #2,UK,F,1995,28,Open,84,82.3,90,95,97.5,97.5,97.5,5,B,Raw,
Emelie Åslund,Sweden,F,1995,28,Open,47,46.05,80,85,92.5,92.5,92.5,1,B,Raw,
Kathrine Forsberg,Denmark,F,1996,27,Open,69,68.4,102.5,110,-117.5,110,110,2,B,Raw,
Teresa Poli,New Zealand,F,1997,26,Open,84+,102.4,105,110,-112.5,110,110,7,B,Raw,
Hanna Buturlym,Ukraine,F,1997,26,Open,57,56.5,82.5,90,-97.5,90,90,7,B,Raw,
Sheina Kaye,UK,F,1997,26,Open,57,54.3,80,82.5,85,85,85,8,B,Raw,
Sara Shelton,USA,F,1997,26,Open,84+,92.45,70,75,80,80,80,8,B,Raw,
Andrea Petrek,Croatia,F,1997,26,Open,69,67.9,-115,115,-122.5,115,115,1,B,Raw,
Sopiko Kvantchiani,Georgia,F,1998,25,Open,57,56.5,-95,95,-100,95,95,3,B,Raw,
Miyabi Kikuchi,Japan,F,1998,25,Open,52,51.25,77.5,85,87.5,87.5,87.5,3,B,Raw,
Anna Rykun,Ukraine,F,1998,25,Open,63,61.15,105,110,-112.5,110,110,1,B,Raw,
Julia Starck,Sweden,F,1998,25,Open,52,51.7,87.5,-90,90,90,90,2,B,Raw,
Marthine Myhr,Norway,F,1999,24,Open,76,73.65,100,-107.5,115,115,115,3,B,Raw,
Vilma Olsson,Sweden,F,1999,24,Open,76,73.65,107.5,112.5,117.5,117.5,117.5,2,B,Raw,
Suki Moss,UK,F,1999,24,Open,63,62.65,72.5,77.5,80,80,80,6,B,Raw,
Phylicia Keizer,Netherlands,F,2000,23,Juniors,76,73.6,90,95,-97.5,95,95,3,B,Raw,
Emily Cakebread,UK,F,2000,23,Juniors,57,56.2,50,55,65,65,65,2,B,Raw,
Agnes Rudin,Sweden,F,2000,23,Juniors,76,75.3,-110,110,-115,110,110,1,B,Raw,
Mahato Subharti,India,F,2000,23,Juniors,69,67.85,70,77.5,80,80,80,2,B,Raw,
Elsa Marin Karlsson,Sweden,F,2000,23,Juniors,69,67.75,110,117.5,123.5,123.5,123.5,1,B,Raw,
Julie Ribere,France,F,2000,23,Juniors,57,56.4,85,90,-92.5,90,90,1,B,Raw,
Karin du Plessis,South Africa,F,2000,23,Juniors,84+,105,75,80,-87.5,80,80,2,B,Raw,
Mariam Tsetskhladze,Georgia,F,2000,23,Juniors,47,46.95,45,50,52.5,52.5,52.5,1,B,Raw,
Selma Ramberg Storstad,Norway,F,2001,22,Juniors,57,56.1,-95,95,-100,95,95,2,B,Raw,
Rebecca Croes,Netherlands,F,2001,22,Juniors,52,50.95,70,75,-77.5,75,75,1,B,Raw,
Marine Peltret,France,F,2002,21,Juniors,63,61.1,85,90,92.5,92.5,92.5,3,B,Raw,
Airi Sakaguch,Japan,F,2003,20,Juniors,76,74.25,80,-97.5,97.5,97.5,97.5,2,B,Raw,
Yasmin Burt,UK,F,2003,20,Juniors,63,62.85,87.5,92.5,95,95,95,2,B,Raw,
Hilma Westerberg,Sweden,F,2004,19,Juniors,63,62.65,90,95,97.5,97.5,97.5,1,B,Raw,
Sunelle Putter,South Africa,F,2004,19,Juniors,84+,105.9,-87.5,87.5,92.5,92.5,92.5,1,B,Raw,
Martyna Janaszek,Poland,F,2005,18,Sub-Juniors,57,54.8,60,-65,65,65,65,1,B,Raw,
Sumiyasuren Ganbaatar,Mongolia,F,2005,18,Sub-Juniors,63,62.65,55,57.5,60,60,60,3,B,Raw,
Catinka Fourie,South Africa,F,2005,18,Sub-Juniors,63,62.7,47.5,50,52.5,52.5,52.5,4,B,Raw,
Kayleigh Grimble,UK,F,2005,18,Sub-Juniors,57,56.6,57.5,62.5,65,65,65,2,B,Raw,
Amelia Gercken,USA,F,2005,18,Sub-Juniors,76,74.85,57.5,65,72.5,72.5,72.5,1,B,Raw,
Roechelle Van der Merwe,South Africa,F,2006,17,Sub-Juniors,76,74.2,62.5,65,-70,65,65,2,B,Raw,
Maria-Sophie Hinz,Germany,F,2006,17,Sub-Juniors,63,62.9,80,85,-87.5,85,85,1,B,Raw,
Eilim Devorah,South Africa,F,2006,17,Sub-Juniors,57,55,40,45,50,50,50,3,B,Raw,
Milla Haapamäki,Finland,F,2006,17,Sub-Juniors,69,67,75,80,85,85,85,1,B,Raw,
Ninni Kopola,Finland,F,2007,16,Sub-Juniors,63,61.6,70,75,-80,75,75,2,B,Raw,
Violet Clarke Waller,UK,F,2007,16,Sub-Juniors,52,52,37.5,40,42.5,42.5,42.5,1,B,Raw,
Ayane Tsushima,Japan,F,2008,15,Sub-Juniors,69,67.3,60,65,-72.5,65,65,3,B,Raw,
Misaki Hashimoto,Japan,F,2008,15,Sub-Juniors,84,76.7,50,62.5,-65,62.5,62.5,1,B,Raw,
Gila Smith,South Africa,F,2009,14,Sub-Juniors,69,67.95,67.5,70,-75,70,70,2,B,Raw,
Mihkel Laurits,Estonia,M,1944,79,Masters 4,120,105.05,100,112.5,-147.5,112.5,112.5,1,B,Single-ply,
Nirmal Kumar Saha,India,M,1948,75,Masters 4,83,75.45,65,75,82.5,82.5,82.5,2,B,Single-ply,
Jiří Horník,Czechia,M,1948,75,Masters 4,105,94.1,40,-50,,40,40,2,B,Single-ply,
Markku Kemppainen,Finland,M,1949,74,Masters 4,74,68.35,107.5,115,-120,115,115,1,B,Single-ply,
Perenlei Shagdar,Mongolia,M,1951,72,Masters 4,66,63.6,70,-87.5,-92.5,70,70,2,B,Single-ply,
Gerhard Baumeister,Germany,M,1952,71,Masters 4,83,82.7,100,125,-140,125,125,1,B,Single-ply,
Pierre Courtehoux,France,M,1953,70,Masters 4,93,92.4,120,,,120,120,1,B,Single-ply,
Seppo Flink,Finland,M,1953,70,Masters 4,66,62.35,85,90,92.5,92.5,92.5,1,B,Single-ply,
Hans Thyssing,Denmark,M,1953,70,Masters 4,105,93.05,125,130,,130,130,1,B,Single-ply,
Hiroyuki Kitamura,Japan,M,1954,69,Masters 3,59,57.9,105,-110,110,110,110,1,B,Single-ply,
Harald Paul,Germany,M,1954,69,Masters 3,120+,128.75,137.5,145,155,155,155,1,B,Single-ply,
Daniel Sides,USA,M,1956,67,Masters 3,74,72.45,127.5,140,142.5,142.5,142.5,3,B,Single-ply,
Voitto Ahopelto,Finland,M,1956,67,Masters 3,83,82.65,115,-135,-135,115,115,4,B,Single-ply,
Erick Deconinck,France,M,1956,67,Masters 3,93,87.6,165,-182.5,-195,165,165,3,B,Single-ply,
Anton Mihok,Slovakia,M,1957,66,Masters 3,74,71.9,140,147.5,-155,147.5,147.5,2,B,Single-ply,
Stephen Flemming,Canada,M,1957,66,Masters 3,105,94.7,-150,150,155,155,155,5,B,Single-ply,
Tomotaka Sakai,Japan,M,1957,66,Masters 3,83,82.1,150,-165,-192.5,150,150,2,B,Single-ply,
Daniel Royer,Canada,M,1957,66,Masters 3,105,98.5,97.5,105,110,110,110,7,B,Single-ply,
Dana Rosenzweig,USA,M,1957,66,Masters 3,93,91.7,142.5,-155,155,155,155,4,B,Single-ply,
Masato Hashimoto,Japan,M,1957,66,Masters 3,66,64.9,102.5,107.5,112.5,112.5,112.5,1,B,Single-ply,
Bayar Purev,Mongolia,M,1958,65,Masters 3,74,73.3,-115,115,-142.5,115,115,6,B,Single-ply,
Roger Eriksen,Norway,M,1960,63,Masters 3,105,104.2,-170,170,-182.5,170,170,3,B,Single-ply,
Dorj Zundui,Mongolia,M,1960,63,Masters 3,83,82.45,-125,-125,125,125,125,3,B,Single-ply,
Tomas Ring,Sweden,M,1960,63,Masters 3,83,82.9,-192.5,192.5,202.5,202.5,202.5,1,B,Single-ply,
Thomas Cencich,USA,M,1960,63,Masters 3,93,91.1,187.5,195,-210,195,195,2,B,Single-ply,
Abbas Pordel,Australia,M,1961,62,Masters 3,120,115.7,195,210,227.5,227.5,227.5,2,B,Single-ply,
Michael Rodriguez #13,USA,M,1961,62,Masters 3,74,72.5,150,152.5,157.5,157.5,157.5,1,B,Single-ply,
Peer Haensicke,Germany,M,1961,62,Masters 3,93,92.75,210,-220,-220,210,210,1,B,Single-ply,
Kim Salby,Denmark,M,1961,62,Masters 3,105,97.1,170,175,180,180,180,2,B,Single-ply,
Štefan Koľšovský,Slovakia,M,1961,62,Masters 3,59,58.3,-135,-135,-135,,,DQ,B,Single-ply,
Katsumi Akiyama,Japan,M,1962,61,Masters 3,105,103.85,172.5,177.5,185,185,185,1,B,Single-ply,
Makoto Takatori,Japan,M,1962,61,Masters 3,105,97.7,135,-145,-152.5,135,135,6,B,Single-ply,
Per Øivind Fjeld,Norway,M,1963,60,Masters 3,120,117,-225,225,230,230,230,1,B,Single-ply,
Christo Schoonraad,South Africa,M,1963,60,Masters 3,105,102.5,165,-172.5,-177.5,165,165,4,B,Single-ply,
Ismo Hietanen,Finland,M,1963,60,Masters 3,74,72.95,130,137.5,-142.5,137.5,137.5,5,B,Single-ply,
Stewart Cowan,UK,M,1963,60,Masters 3,120,106.9,175,187.5,-210,187.5,187.5,3,B,Single-ply,
Tommie de Nysschen,South Africa,M,1963,60,Masters 3,74,73.65,140,-147.5,-147.5,140,140,4,B,Single-ply,
Jukka Siltanen,Sweden,M,1965,58,Masters 2,74,73.35,135,142.5,-165,142.5,142.5,5,B,Single-ply,
Mike Ferrantelli,USA,M,1966,57,Masters 2,120,106.1,-190,-190,-190,,,DQ,B,Single-ply,
Stuart Peskett,UK,M,1966,57,Masters 2,83,82.15,-170,175,-177.5,175,175,5,B,Single-ply,
Mario Schnurr,Germany,M,1966,57,Masters 2,105,99.9,215,225,230,230,230,3,B,Single-ply,
Shigeaki Ametani,Japan,M,1967,56,Masters 2,93,89.45,-180,-180,-180,,,DQ,B,Single-ply,
Steve Petrencak,USA,M,1968,55,Masters 2,66,64.45,-155,-155,-155,,,DQ,B,Single-ply,
Alf-Ivar Hellerud,Norway,M,1969,54,Masters 2,93,91.1,-245,-245,-255,,,DQ,B,Single-ply,
Maik Staegemann,Germany,M,1969,54,Masters 2,66,65,155,-170,-170,155,155,1,B,Single-ply,
Vesa Hartikainen,Finland,M,1969,54,Masters 2,83,82.8,190,-205,-220,190,190,3,B,Single-ply,
Koji Yoshino,Japan,M,1969,54,Masters 2,59,58.4,130,140,145,145,145,1,B,Single-ply,
John Crain,South Africa,M,1969,54,Masters 2,120+,122.1,190,202.5,212.5,212.5,212.5,3,B,Single-ply,
Hermanus de Beer,South Africa,M,1970,53,Masters 2,120,114.6,165,170,175,175,175,4,B,Single-ply,
Kaj Mattila,Finland,M,1970,53,Masters 2,120,107.3,200,205,-240,205,205,2,B,Single-ply,
Darren Ball,UK,M,1970,53,Masters 2,120+,122.05,-200,200,212.5,212.5,212.5,2,B,Single-ply,
Rickard Sandstrom,Sweden,M,1970,53,Masters 2,83,82.7,165,-172.5,177.5,177.5,177.5,4,B,Single-ply,
Teskhuu Ichinnorov,Mongolia,M,1971,52,Masters 2,105,102.5,230,240,-250,240,240,2,B,Single-ply,
Glen van der Linde,South Africa,M,1971,52,Masters 2,74,70.55,130,135,-150,135,135,6,B,Single-ply,
Bayarkhuu Tserendamba,Mongolia,M,1971,52,Masters 2,120,118.35,-240,240,-242.5,240,240,1,B,Single-ply,
Mitsuo Kametani,Japan,M,1971,52,Masters 2,74,69.5,-205,-205,205,205,205,1,B,Single-ply,
Deepak Shreenath Sharma,India,M,1971,52,Masters 2,120+,131.5,85,-95,95,95,95,5,B,Single-ply,
Ove Henning Lorentzen,Norway,M,1971,52,Masters 2,83,81.75,212.5,217.5,222.5,222.5,222.5,1,B,Single-ply,
Nick Doelman,Canada,M,1972,51,Masters 2,120,118.3,155,165,180,180,180,3,B,Single-ply,
Vincent Eldin,France,M,1972,51,Masters 2,74,72.9,170,177.5,-182.5,177.5,177.5,3,B,Single-ply,
Kaj Wasenius,Finland,M,1972,51,Masters 2,105,103.5,145,165,-200,165,165,5,B,Single-ply,
Gys Smith,South Africa,M,1972,51,Masters 2,120+,137.15,185,192.5,-202.5,192.5,192.5,4,B,Single-ply,
Amarsanaa Khuujii,Mongolia,M,1972,51,Masters 2,74,73.5,165,-172.5,-180,165,165,4,B,Single-ply,
Cyril Pinguet,France,M,1972,51,Masters 2,83,82.4,-210,-210,210,210,210,2,B,Single-ply,
William Thacker,USA,M,1972,51,Masters 2,105,103.4,240,245,252.5,252.5,252.5,1,B,Single-ply,
Grzegorz Nocek,Poland,M,1973,50,Masters 2,93,92,250,255,-280,255,255,1,B,Single-ply,
Jan Pinc,Czechia,M,1973,50,Masters 2,120+,135.7,250,-260,-260,250,250,1,B,Single-ply,
Bartosz Żelazko,Poland,M,1973,50,Masters 2,74,73.55,185,190,-207.5,190,190,2,B,Single-ply,
Hirohide Yoshimoto,Japan,M,1973,50,Masters 2,59,58.7,115,125,-142.5,125,125,2,B,Single-ply,
Akihisa Takemura,Japan,M,1973,50,Masters 2,105,103.35,170,-217.5,-245,170,170,4,B,Single-ply,
Uurtsaikh Bazarsuren,Mongolia,M,1973,50,Masters 2,120,119.2,-242.5,-242.5,-242.5,,,DQ,B,Single-ply,
Tomasz Dębicki,Poland,M,1974,49,Masters 1,83,82.25,-182.5,-185,-185,,,DQ,B,Single-ply,
Thomas Wetzstein,Austria,M,1974,49,Masters 1,93,92.65,240,-250,250,250,250,1,B,Single-ply,
Scott Simon #1,UK,M,1974,49,Masters 1,120,113.6,240,250,-265,250,250,2,B,Single-ply,
Marcus Holmgren,Sweden,M,1975,48,Masters 1,74,73.6,-170,170,-185,170,170,4,B,Single-ply,
Kenneth Sandvik,Finland,M,1975,48,Masters 1,120+,142.2,300,317.5,-335,317.5,317.5,4,B,Single-ply,
Lionel Suc,France,M,1975,48,Masters 1,83,81.95,180,-185,-185,180,180,5,B,Single-ply,
Takashi Goto,Japan,M,1976,47,Masters 1,83,80.75,-205,205,217.5,217.5,217.5,1,B,Single-ply,
Akinori Amakawa,Japan,M,1977,46,Masters 1,66,65.35,177.5,182.5,190,190,190,1,B,Single-ply,
Eryk Walczak,Poland,M,1977,46,Masters 1,105,104,260,-265,272.5,272.5,272.5,1,B,Single-ply,
Ville Vaivila,Finland,M,1977,46,Masters 1,66,65.85,120,-127.5,-132.5,120,120,4,B,Single-ply,
Adam Mamola,USA,M,1977,46,Masters 1,93,89.15,-292.5,295,-322.5,295,295,1,B,Single-ply,
Sean Vandenburg,Canada,M,1977,46,Masters 1,66,63.65,130,-135,-135,130,130,3,B,Single-ply,
Gantugs Ganjuur,Mongolia,M,1978,45,Masters 1,83,82.8,-202.5,202.5,212.5,212.5,212.5,3,B,Single-ply,
Simon Breetzke,South Africa,M,1978,45,Masters 1,120+,142.7,235,255,-265,255,255,2,B,Single-ply,
Jiří Horník,Czechia,M,1978,45,Masters 1,93,89.15,195,202.5,-215,202.5,202.5,3,B,Single-ply,
Ricardo Roesler,Germany,M,1979,44,Masters 1,93,92.15,-190,-197.5,-205,,,DQ,B,Single-ply,
Artak Asrian,Netherlands,M,1979,44,Masters 1,83,81.15,170,177.5,185,185,185,4,B,Single-ply,
Takuya Ishikawa,Japan,M,1979,44,Masters 1,66,65.3,160,167.5,-182.5,167.5,167.5,2,B,Single-ply,
Jani Haapamäki,Finland,M,1979,44,Masters 1,74,73.65,195,200,207.5,207.5,207.5,2,B,Single-ply,
Toshihiko Noda,Japan,M,1979,44,Masters 1,59,58.7,170,195,-220.5,195,195,1,B,Single-ply,
Daiki Kodama,Japan,M,1979,44,Masters 1,83,82.05,-275,275,-302.5,275,275,1,B,Single-ply,
Frank Barthel,Germany,M,1980,43,Masters 1,120,106.6,250,255,-265,255,255,1,B,Single-ply,
Amir Reza Mesforoosh,Iran,M,1980,43,Masters 1,74,71.45,-145,145,167.5,167.5,167.5,3,B,Single-ply,
Andrii Balenkov,Ukraine,M,1981,42,Masters 1,83,81.5,260,270,-292.5,270,270,2,B,Single-ply,
René Groß,Germany,M,1981,42,Masters 1,120+,127,285,335,-342.5,335,335,1,B,Single-ply,
Luke Hanifen,USA,M,1981,42,Masters 1,83,81.2,207.5,210,217.5,217.5,217.5,2,B,Single-ply,
Craig Masson,South Africa,M,1981,42,Masters 1,120,109.3,202.5,225,-230,225,225,3,B,Single-ply,
Chimedtseren Bataa,Mongolia,M,1981,42,Masters 1,120+,121.75,-337.5,-337.5,345,345,345,2,B,Single-ply,
Munkhbat Odontungalag,Mongolia,M,1982,41,Masters 1,120+,122,305,-317.5,-320,305,305,5,B,Single-ply,
Kosuke Araki,Japan,M,1982,41,Masters 1,83,81.95,-180,-180,-180,,,DQ,B,Single-ply,
Batsaikhan Baljinnyam,Mongolia,M,1982,41,Masters 1,74,72.05,-182.5,182.5,-200,182.5,182.5,3,B,Single-ply,
Rafał Zalewski,Poland,M,1983,40,Masters 1,93,92.75,290,295,-297.5,295,295,2,B,Single-ply,
Mads Friche,Denmark,M,1983,40,Masters 1,83,82.55,-245,245,255,255,255,4,B,Single-ply,
Joakim Wång,Sweden,M,1983,40,Masters 1,93,91.2,-255,255,-280,255,255,5,B,Single-ply,
Yuki Sato,Japan,M,1983,40,Masters 1,93,91.15,215,-240,240,240,240,2,B,Single-ply,
Andreas Frasl,Austria,M,1983,40,Masters 1,66,65.25,217.5,225,-240,225,225,2,B,Single-ply,
Yoshiaki Matsuoka,Japan,M,1983,40,Masters 1,74,73.7,200,-202.5,210,210,210,1,B,Single-ply,
Deon Smedley,South Africa,M,1984,39,Open,93,92,175,-180,180,180,180,8,B,Single-ply,
Milan Selinger,Czechia,M,1984,39,Open,120,120,-295,-295,-305,,,DQ,B,Single-ply,
Masashi Fukuda,Japan,M,1984,39,Open,66,65.8,230,232.5,-250.5,232.5,232.5,1,B,Single-ply,
Archie Ayekpa,South Africa,M,1985,38,Open,93,91.55,190,202.5,210,210,210,7,B,Single-ply,
Ivan Chuprinko,Ukraine,M,1986,37,Open,74,73.95,270,300.5,-310,300.5,300.5,1,B,Single-ply,
Derik van Wyk,South Africa,M,1986,37,Open,105,104.2,195,-202.5,-210,195,195,8,B,Single-ply,
Tumenjargal Dashzegve,Mongolia,M,1987,36,Open,105,104.4,-307.5,307.5,330,330,330,1,B,Single-ply,
Michael Gibson #2,UK,M,1987,36,Open,105,104.25,270,-282.5,-282.5,270,270,5,B,Single-ply,
Gansukh Batsukh,Mongolia,M,1988,35,Open,93,91.25,280,-290,-292.5,280,280,4,B,Single-ply,
Shane Martin,Canada,M,1988,35,Open,120+,130,322.5,340,347.5,347.5,347.5,1,B,Single-ply,
Garrett Cartwright-Bentley,Canada,M,1988,35,Open,120+,134.75,-332.5,332.5,342.5,342.5,342.5,3,B,Single-ply,
Felix Beßler,Germany,M,1988,35,Open,120,117.8,290,302.5,-322.5,302.5,302.5,3,B,Single-ply,
Alex Hochlov,Germany,M,1989,34,Open,93,91.4,225,240,-257.5,240,240,6,B,Single-ply,
Per Marius Hole,Norway,M,1989,34,Open,120,118.6,330,-335,-345,330,330,1,B,Single-ply,
Fongang Techap,Cameroon,M,1989,34,Open,74,73.75,140,-160,-167.5,140,140,5,B,Single-ply,
Raik Günterberg,Germany,M,1989,34,Open,83,82.45,240,252.5,255,255,255,3,B,Single-ply,
Chanrav Shuurai,Mongolia,M,1989,34,Open,120,112.95,-320,320,-330,320,320,2,B,Single-ply,
Amartaivan Amgalanbaatar,Mongolia,M,1989,34,Open,59,58.65,140,170,-192.5,170,170,3,B,Single-ply,
Markus Glueck,Austria,M,1990,33,Open,120,117.6,290,300,-302.5,300,300,4,B,Single-ply,
Austin Brown,USA,M,1990,33,Open,105,104,-295,295,-307.5,295,295,3,B,Single-ply,
Daniel McGauley,UK,M,1990,33,Open,59,56.1,75,82.5,-102.5,82.5,82.5,1,B,Single-ply,
Fredrik Eskil Myrvang,Norway,M,1990,33,Open,59,57.6,185,187.5,190,190,190,2,B,Single-ply,
Yasuki Yamashita,Japan,M,1991,32,Open,93,92.75,-292.5,-292.5,292.5,292.5,292.5,3,B,Single-ply,
Satoshi Kase,Japan,M,1991,32,Open,120,111.4,-310,-310,-310,,,DQ,B,Single-ply,
Naoki Hasegawa,Japan,M,1992,31,Open,105,102.5,305,310,-330,310,310,2,B,Single-ply,
Kazuho Uemura,Japan,M,1992,31,Open,120+,126.6,120,-250,-250,120,120,6,B,Single-ply,
Tatsuya Kawashima,Japan,M,1993,30,Open,66,65.6,220,-230,-237.5,220,220,3,B,Single-ply,
Brian Chuong,Canada,M,1993,30,Open,105,98.6,240,255,-270,255,255,6,B,Single-ply,
Arshia Arshadi,Canada,M,1993,30,Open,120,117.85,225,240,-252.5,240,240,5,B,Single-ply,
Marcel Vorster,South Africa,M,1994,29,Open,74,70.45,180,185,190,190,190,2,B,Single-ply,
Oliver Dahlkvist,Sweden,M,1995,28,Open,105,104.75,280,-297.5,-297.5,280,280,4,B,Single-ply,
Rasmus Mirblom,Sweden,M,1995,28,Open,120+,146.2,-315,-315,-320,,,DQ,B,Single-ply,
Dulguun Batbold,Mongolia,M,1997,26,Open,83,82.4,-247.5,247.5,-255,247.5,247.5,6,B,Single-ply,
Joseph Shaw,UK,M,1998,25,Open,105,104.65,-220,227.5,-250,227.5,227.5,7,B,Single-ply,
Ruben van der Linde,South Africa,M,1998,25,Open,74,69.95,-165,-165,165,165,165,4,B,Single-ply,
Yo Tamura,Japan,M,1999,24,Open,59,57.95,187.5,190,195,195,195,1,B,Single-ply,
Vincent Opitz,Germany,M,2000,23,Juniors,93,92.7,220,-230,237.5,237.5,237.5,1,B,Single-ply,
Jakub Krolik,Poland,M,2000,23,Juniors,120,112.9,-205,-205,-207.5,,,DQ,B,Single-ply,
Filip Lewczyk,Poland,M,2000,23,Juniors,120+,120.6,120,190,200,200,200,1,B,Single-ply,
Futa Honda,Japan,M,2000,23,Juniors,93,90.25,200,-220,-232.5,200,200,3,B,Single-ply,
Kevin Schmid,Austria,M,2000,23,Juniors,83,82.4,215,217.5,222.5,222.5,222.5,1,B,Single-ply,
Tserenbat Chuluunbat,Mongolia,M,2000,23,Juniors,74,73.5,185,202.5,205,205,205,1,B,Single-ply,
Maciej Zastawny,Poland,M,2000,23,Juniors,83,82.7,210,-217.5,-220,210,210,2,B,Single-ply,
Arvid Sandström,Sweden,M,2000,23,Juniors,74,73.15,200,-202.5,202.5,202.5,202.5,2,B,Single-ply,
Vetle Skundberg,Norway,M,2000,23,Juniors,93,91.5,225,232.5,-240,232.5,232.5,2,B,Single-ply,
Angus Gardner,UK,M,2000,23,Juniors,105,95.7,175,185,-200,185,185,2,B,Single-ply,
Radosław Dębicki,Poland,M,2001,22,Juniors,66,65.65,152.5,157.5,162.5,162.5,162.5,2,B,Single-ply,
Yuki Hirakawa,Japan,M,2001,22,Juniors,59,58.15,160,200.5,-220.5,200.5,200.5,1,B,Single-ply,
Kanta Kinoshita,Japan,M,2002,21,Juniors,120,105.05,185,205,-210,205,205,1,B,Single-ply,
Turbold Odsuren,Mongolia,M,2002,21,Juniors,59,59,100,-140,-140,100,100,2,B,Single-ply,
David Warnquist,Sweden,M,2002,21,Juniors,105,104.3,230,-250,-260,230,230,1,B,Single-ply,
Hiromu Kojima,Japan,M,2003,20,Juniors,66,65.8,155,160,165,165,165,1,B,Single-ply,
Krzysztof Perlik,Poland,M,2004,19,Juniors,74,74,145,152.5,-157.5,152.5,152.5,3,B,Single-ply,
Matti David,Germany,M,2004,19,Juniors,83,82.8,-190,190,-192.5,190,190,4,B,Single-ply,
David Horník,Czechia,M,2004,19,Juniors,83,78.8,177.5,190,192.5,192.5,192.5,3,B,Single-ply,
Dandotiya Kuldeep,India,M,2004,19,Juniors,120+,121.55,60,100,-115,100,100,2,B,Single-ply,
Sven Sester,Germany,M,2005,18,Sub-Juniors,83,82.25,110,165,-175,165,165,1,B,Single-ply,
Yuki Kojima,Japan,M,2005,18,Sub-Juniors,74,69.2,160,170,-213.5,170,170,1,B,Single-ply,
Chakravarti Monish,India,M,2005,18,Sub-Juniors,120,113.2,160,-187.5,,160,160,1,B,Single-ply,
Rehak Martin,Czechia,M,2005,18,Sub-Juniors,74,71.9,-160,160,-172.5,160,160,2,B,Single-ply,
Zachary Vandenburg,Canada,M,2007,16,Sub-Juniors,53,50.9,70,80,-85,80,80,1,B,Single-ply,
Konosuke Yazawa,Japan,M,2008,15,Sub-Juniors,93,88.65,100,150,-170,150,150,1,B,Single-ply,
Barkhasbaatar Lkhagvajav,Mongolia,M,1981,42,Masters 1,105,104.1,242.5,262.5,-272.5,262.5,262.5,2,B,Single-ply,
Bayarbaatar Batgerel,Mongolia,M,1991,32,Open,83,82.65,-245,-245,255,255,255,5,B,Single-ply,
Françoise Heligon,France,F,1943,80,Masters 4,57,53.2,45,-47.5,47.5,47.5,47.5,1,B,Single-ply,
Judith McGauley,UK,F,1948,75,Masters 4,52,49.1,32.5,37.5,40,40,40,1,B,Single-ply,
Chiyomi Sawa,Japan,F,1949,74,Masters 4,76,75.6,60,95,100,100,100,1,B,Single-ply,
Martine Roche,France,F,1956,67,Masters 3,52,51.65,67.5,72.5,-75,72.5,72.5,1,B,Single-ply,
Evelyne Herbin,France,F,1956,67,Masters 3,69,65.05,70,75,-80,75,75,2,B,Single-ply,
Socorro Perez,Mexico,F,1959,64,Masters 3,63,60.6,85,90,95,95,95,1,B,Single-ply,
Janine Wheeler,Canada,F,1960,63,Masters 3,76,74.5,65,70,80,80,80,1,B,Single-ply,
Patricia Maciejewski,France,F,1961,62,Masters 3,69,68.35,85,90,-92.5,90,90,1,B,Single-ply,
Megumi Tokutake,Japan,F,1964,59,Masters 2,76,73.7,110,-138.5,-141,110,110,2,B,Single-ply,
Maureen Gordon,UK,F,1964,59,Masters 2,69,67.1,102.5,107.5,112.5,112.5,112.5,1,B,Single-ply,
Nathalie Gransard,France,F,1964,59,Masters 2,84+,97.45,110,-117.5,-117.5,110,110,2,B,Single-ply,
Seija Skogman,Finland,F,1965,58,Masters 2,69,67.8,-90,-90,90,90,90,3,B,Single-ply,
Hisako Ando,Japan,F,1965,58,Masters 2,57,55.75,55,60,-72.5,60,60,3,B,Single-ply,
Carol Anthony,South Africa,F,1966,57,Masters 2,52,51.55,47.5,52.5,55,55,55,3,B,Single-ply,
Marie-France Cabos,France,F,1967,56,Masters 2,57,55.4,90,95,100,100,100,1,B,Single-ply,
Claudia Nagata,USA,F,1968,55,Masters 2,69,66.25,70,-80,-90,70,70,4,B,Single-ply,
Florence Leccese,France,F,1969,54,Masters 2,69,65.65,87.5,-92.5,92.5,92.5,92.5,2,B,Single-ply,
Anita Traasdahl,Norway,F,1969,54,Masters 2,57,55.55,-92.5,92.5,-100,92.5,92.5,2,B,Single-ply,
Eirin Herland,Norway,F,1969,54,Masters 2,84,83.1,-95,-95,95,95,95,1,B,Single-ply,
Géraldine Verlaine,France,F,1970,53,Masters 2,52,51.25,75,-80,-80,75,75,1,B,Single-ply,
Sanna Oksanen,Finland,F,1971,52,Masters 2,63,62.15,80,-105,-110,80,80,2,B,Single-ply,
Annelie Izindre,Sweden,F,1972,51,Masters 2,63,61.75,95,105,107.5,107.5,107.5,1,B,Single-ply,
Angel Yau-Vandenburg,Canada,F,1972,51,Masters 2,52,48.05,62.5,-65,-75,62.5,62.5,2,B,Single-ply,
Joanne Laird,UK,F,1972,51,Masters 2,84+,129.15,-120,125,135,135,135,1,B,Single-ply,
Elisabeth Barry,South Africa,F,1973,50,Masters 2,47,46.8,42.5,45,47.5,47.5,47.5,1,B,Single-ply,
Tiina Voho,Finland,F,1973,50,Masters 2,76,75.55,-140.5,140.5,150,150,150,1,B,Single-ply,
Hideko Suzuki,Japan,F,1974,49,Masters 1,69,66.55,75,80,-97.5,80,80,2,B,Single-ply,
Marcela Sandvik,Finland,F,1974,49,Masters 1,52,51.7,90,102.5,-117.5,102.5,102.5,2,B,Single-ply,
Petra Höglund,Sweden,F,1975,48,Masters 1,84,76.85,130,-135,-140,130,130,1,B,Single-ply,
Mélisa Meunier,France,F,1975,48,Masters 1,63,61,67.5,77.5,-82.5,77.5,77.5,1,B,Single-ply,
Kyoko Ishii,Japan,F,1976,47,Masters 1,69,67.35,60,-67.5,-75,60,60,4,B,Single-ply,
Amy Suzan,US Virgin Islands,F,1976,47,Masters 1,69,67.1,92.5,97.5,-102.5,97.5,97.5,1,B,Single-ply,
Yumiko Ito,Japan,F,1976,47,Masters 1,63,62.2,40,100,105,105,105,5,B,Single-ply,
Akiko Nishikawa,Japan,F,1976,47,Masters 1,52,51.7,55,95,-105,95,95,1,B,Single-ply,
Iolanda Costa Zolyome,Brazil,F,1977,46,Masters 1,76,74.8,130,135,137.5,137.5,137.5,1,B,Single-ply,
Linda Kristensen,Norway,F,1977,46,Masters 1,76,75.65,-160,160,167.5,167.5,167.5,4,B,Single-ply,
Sima Dutt Chatterjee,India,F,1977,46,Masters 1,69,68.85,67.5,75,-82.5,75,75,3,B,Single-ply,
Jacqui Rees,South Africa,F,1980,43,Masters 1,84+,88.65,112.5,117.5,120,120,120,1,B,Single-ply,
Tyagi Kiran,India,F,1980,43,Masters 1,84,78.85,67.5,70,77.5,77.5,77.5,3,B,Single-ply,
Sandra Jakobsson,Sweden,F,1981,42,Masters 1,76,72.9,120,130,135,135,135,2,B,Single-ply,
Pamela Hodder,Canada,F,1981,42,Masters 1,84,79.9,-117.5,117.5,122.5,122.5,122.5,2,B,Single-ply,
Tiina Leppäaho,Finland,F,1983,40,Masters 1,76,74.75,90,-95,95,95,95,3,B,Single-ply,
Hildeborg Juvet Hugdal,Norway,F,1983,40,Masters 1,84+,122.6,217.5,-227.5,-235.5,217.5,217.5,1,B,Single-ply,
Jessica Reyes,Mexico,F,1983,40,Masters 1,57,54.55,102.5,-110,110,110,110,1,B,Single-ply,
Tomoko Akagawa,Japan,F,1984,39,Open,57,56.5,135,142.5,-157.5,142.5,142.5,2,B,Single-ply,
Maria Frank,Canada,F,1984,39,Open,63,57.1,125,127.5,-132.5,127.5,127.5,2,B,Single-ply,
Christi Rees,South Africa,F,1986,37,Open,84+,108.4,175,182.5,-190,182.5,182.5,2,B,Single-ply,
Ankie Timmers,Netherlands,F,1986,37,Open,84,82.5,177.5,185,192.5,192.5,192.5,1,B,Single-ply,
Amila Dissanayake,UK,F,1988,35,Open,52,51,100,-105,-110,100,100,3,B,Single-ply,
Kumi Mizoguchi,Japan,F,1988,35,Open,76,75.65,162.5,165,170,170,170,1,B,Single-ply,
Olivia Perotti,South Africa,F,1989,34,Open,84,83.15,117.5,-122.5,-137.5,117.5,117.5,4,B,Single-ply,
Maj B Rames,Denmark,F,1989,34,Open,63,62.45,150,155,160,160,160,1,B,Single-ply,
Maria Karjalainen,Finland,F,1990,33,Open,63,57.55,122.5,127.5,-132.5,127.5,127.5,3,B,Single-ply,
Frida Wik,Sweden,F,1991,32,Open,76,75.45,150,160,167.5,167.5,167.5,3,B,Single-ply,
Oksana Vedmid,Ukraine,F,1991,32,Open,57,54.35,140,-150,-155,140,140,3,B,Single-ply,
Bouba Salamatou,Cameroon,F,1991,32,Open,69,66.5,100,120,125,125,125,2,B,Single-ply,
Annemia Pretzmann,Denmark,F,1992,31,Open,76,75.25,157.5,162.5,167.5,167.5,167.5,2,B,Single-ply,
Oksana Motrunchyk,Ukraine,F,1992,31,Open,47,46.85,90,-100,100,100,100,1,B,Single-ply,
Akane Ishibashi,Japan,F,1993,30,Open,57,55.6,80,-135,-157.5,80,80,4,B,Single-ply,
Ingvild Hansen,Norway,F,1994,29,Open,69,67.55,152.5,160,-170,160,160,1,B,Single-ply,
Daria Ławniczak,Poland,F,1995,28,Open,84,76.06,145,-152.5,152.5,152.5,152.5,2,B,Single-ply,
Rachel Steedman,UK,F,1995,28,Open,84,76.55,127.5,135,-147.5,135,135,3,B,Single-ply,
Megan Leighton,South Africa,F,1996,27,Open,69,64.4,112.5,120,-125,120,120,3,B,Single-ply,
Hanna Buturlym,Ukraine,F,1997,26,Open,63,57.7,115,125,-132.5,125,125,4,B,Single-ply,
Miyabi Kikuchi,Japan,F,1998,25,Open,52,51.1,107.5,115,-132.5,115,115,1,B,Single-ply,
Zuzanna Kula,Poland,F,1999,24,Open,57,55.2,150,155,-157.5,155,155,1,B,Single-ply,
Karolina Kołata,Poland,F,1999,24,Open,84+,102.8,160,-175,-182.5,160,160,3,B,Single-ply,
Agnes Rudin,Sweden,F,2000,23,Juniors,76,75.75,145,-152.5,155,155,155,2,B,Single-ply,
Mahato Subharti,India,F,2000,23,Juniors,69,68.15,85,95,-107.5,95,95,3,B,Single-ply,
Linnea Forslund,Sweden,F,2002,21,Juniors,69,64.55,-115,115,125,125,125,1,B,Single-ply,
Airi Sakaguchi,Japan,F,2003,20,Juniors,76,74.3,145,152.5,155,155,155,1,B,Single-ply,
Hilma Westerberg,Sweden,F,2004,19,Juniors,69,63.75,-115,115,-125,115,115,2,B,Single-ply,
Martyna Janaszek,Poland,F,2005,18,Sub-Juniors,57,54.45,57.5,75,82.5,82.5,82.5,1,B,Single-ply,
Sumiyasuren Ganbaatar,Mongolia,F,2005,18,Sub-Juniors,63,62.55,50,70,77.5,77.5,77.5,1,B,Single-ply,
Ella Brincat Smith,UK,F,2005,18,Sub-Juniors,84+,96.6,-82.5,82.5,87.5,87.5,87.5,1,B,Single-ply,
Anika Maree,South Africa,F,2006,17,Sub-Juniors,76,74.1,65,70,-75,70,70,1,B,Single-ply,
Milla Haapamäki,Finland,F,2006,17,Sub-Juniors,69,67.55,95,102.5,110,110,110,1,B,Single-ply,
